<?xml version="1.0" encoding="UTF-8" standalone="no"?>
<svg
   xmlns:dc="http://purl.org/dc/elements/1.1/"
   xmlns:cc="http://creativecommons.org/ns#"
   xmlns:rdf="http://www.w3.org/1999/02/22-rdf-syntax-ns#"
   xmlns:svg="http://www.w3.org/2000/svg"
   xmlns="http://www.w3.org/2000/svg"
   xmlns:sodipodi="http://sodipodi.sourceforge.net/DTD/sodipodi-0.dtd"
   xmlns:inkscape="http://www.inkscape.org/namespaces/inkscape"
   sodipodi:docname="logo_360_w_2.svg"
   inkscape:version="1.0 (1.0+r73+1)"
   id="svg1368"
   version="1.1"
   viewBox="0 0 67.40329 44.091034"
   height="44.091034mm"
   width="67.40329mm">
  <defs
     id="defs1362" />
  <sodipodi:namedview
     inkscape:window-maximized="1"
     inkscape:window-y="27"
     inkscape:window-x="70"
     inkscape:window-height="836"
     inkscape:window-width="1530"
     fit-margin-bottom="0"
     fit-margin-right="0"
     fit-margin-left="0"
     fit-margin-top="0"
     showgrid="false"
     inkscape:document-rotation="0"
     inkscape:current-layer="layer1"
     inkscape:document-units="mm"
     inkscape:cy="89.202141"
     inkscape:cx="-49.563763"
     inkscape:zoom="1.979899"
     inkscape:pageshadow="2"
     inkscape:pageopacity="0.0"
     borderopacity="1.0"
     bordercolor="#666666"
     pagecolor="#ffffff"
     id="base" />
  <metadata
     id="metadata1365">
    <rdf:RDF>
      <cc:Work
         rdf:about="">
        <dc:format>image/svg+xml</dc:format>
        <dc:type
           rdf:resource="http://purl.org/dc/dcmitype/StillImage" />
        <dc:title></dc:title>
      </cc:Work>
    </rdf:RDF>
  </metadata>
  <g
     transform="translate(-1374.1873,-773.44561)"
     id="layer1"
     inkscape:groupmode="layer"
     inkscape:label="Ebene 1">
    <text
       transform="scale(1.0153485,0.98488352)"
       id="text860-7-7-2-1-0-8-1-4"
       y="802.30359"
       x="1353.3909"
       style="font-style:normal;font-variant:normal;font-weight:normal;font-stretch:normal;font-size:5.66371px;line-height:1.15;font-family:Roboto;-inkscape-font-specification:Roboto;letter-spacing:1.8474px;word-spacing:0px;fill:#000000;fill-opacity:1;stroke:none;stroke-width:0.141593"
       xml:space="preserve"><tspan
         id="tspan1122-50-3-7"
         style="font-style:normal;font-variant:normal;font-weight:bold;font-stretch:normal;font-size:6.03935px;line-height:1.15;font-family:Roboto;-inkscape-font-specification:'Roboto Bold';letter-spacing:1.8474px;fill:#000000;stroke-width:0.141593"
         y="802.30359"
         x="1353.3909"
         sodipodi:role="line">N</tspan><tspan
         id="tspan4977"
         style="font-style:normal;font-variant:normal;font-weight:bold;font-stretch:normal;font-size:6.03935px;line-height:1.15;font-family:Roboto;-inkscape-font-specification:'Roboto Bold';letter-spacing:1.8474px;fill:#000000;stroke-width:0.141593"
         y="809.24884"
         x="1353.3909"
         sodipodi:role="line">-</tspan><tspan
         id="tspan975-9-2-6"
         style="font-style:normal;font-variant:normal;font-weight:bold;font-stretch:normal;font-size:6.03935px;line-height:1.15;font-family:Roboto;-inkscape-font-specification:'Roboto Bold';letter-spacing:1.8474px;fill:#000000;stroke-width:0.141593"
         y="816.19409"
         x="1353.3909"
         sodipodi:role="line">A</tspan><tspan
         id="tspan977-6-1-8"
         style="font-style:normal;font-variant:normal;font-weight:bold;font-stretch:normal;font-size:6.03935px;line-height:1.15;font-family:Roboto;-inkscape-font-specification:'Roboto Bold';letter-spacing:1.8474px;fill:#000000;stroke-width:0.141593"
         y="823.13934"
         x="1353.3909"
         sodipodi:role="line">E</tspan><tspan
         id="tspan979-3-5-9"
         style="font-style:normal;font-variant:normal;font-weight:bold;font-stretch:normal;font-size:6.03935px;line-height:1.15;font-family:Roboto;-inkscape-font-specification:'Roboto Bold';letter-spacing:1.8474px;fill:#000000;stroke-width:0.141593"
         y="830.08459"
         x="1353.3909"
         sodipodi:role="line">R</tspan><tspan
         id="tspan983-56-9-6"
         style="font-style:normal;font-variant:normal;font-weight:bold;font-stretch:normal;font-size:6.03935px;line-height:1.15;font-family:Roboto;-inkscape-font-specification:'Roboto Bold';letter-spacing:1.8474px;fill:#000000;stroke-width:0.141593"
         y="836.70325"
         x="1353.3909"
         sodipodi:role="line" /></text>
    <text
       transform="scale(1.0153485,0.98488352)"
       id="text860-7-7-2-1-0-0-1-1-8"
       y="810.57477"
       x="1399.8502"
       style="font-style:normal;font-variant:normal;font-weight:normal;font-stretch:normal;font-size:5.66371px;line-height:1.23;font-family:Roboto;-inkscape-font-specification:Roboto;letter-spacing:1.84816px;word-spacing:0px;fill:#000000;fill-opacity:1;stroke:none;stroke-width:0.141593"
       xml:space="preserve"><tspan
         id="tspan981-4-1-4-7"
         style="font-style:normal;font-variant:normal;font-weight:bold;font-stretch:normal;line-height:1.23;font-family:Roboto;-inkscape-font-specification:'Roboto Bold';letter-spacing:1.84816px;fill:#000000;stroke-width:0.141593"
         y="810.57477"
         x="1399.8502"
         sodipodi:role="line">U</tspan><tspan
         id="tspan983-1-5-9-90"
         style="font-style:normal;font-variant:normal;font-weight:bold;font-stretch:normal;line-height:1.23;font-family:Roboto;-inkscape-font-specification:'Roboto Bold';letter-spacing:1.84816px;fill:#000000;stroke-width:0.141593"
         y="817.54114"
         x="1399.8502"
         sodipodi:role="line">S</tspan></text>
    <text
       transform="scale(1.0153485,0.98488352)"
       id="text860-7-7-2-1-0-1-9-1-33"
       y="789.43787"
       x="1399.7424"
       style="font-style:normal;font-variant:normal;font-weight:normal;font-stretch:normal;font-size:5.66371px;line-height:1.23;font-family:Roboto;-inkscape-font-specification:Roboto;letter-spacing:1.84816px;word-spacing:0px;fill:#000000;fill-opacity:1;stroke:none;stroke-width:0.141593"
       xml:space="preserve"><tspan
         id="tspan975-3-8-0-3"
         style="font-style:normal;font-variant:normal;font-weight:bold;font-stretch:normal;line-height:1.23;font-family:Roboto;-inkscape-font-specification:'Roboto Bold';letter-spacing:1.84816px;fill:#000000;stroke-width:0.141593"
         y="789.43787"
         x="1399.7424"
         sodipodi:role="line">A</tspan><tspan
         style="fill:#000000;stroke-width:0.141593"
         id="tspan983-5-4-7-7"
         y="796.40424"
         x="1399.7424"
         sodipodi:role="line" /></text>
    <g
       transform="matrix(1.2228181,0,0,1.2228181,1301.5971,1041.737)"
       id="g1251-30-0-5"
       style="fill:#000000">
      <text
         xml:space="preserve"
         style="font-style:normal;font-variant:normal;font-weight:normal;font-stretch:normal;font-size:4.77124px;line-height:1.25;font-family:Roboto;-inkscape-font-specification:Roboto;letter-spacing:0px;word-spacing:0px;fill:#000000;fill-opacity:1;stroke:none;stroke-width:0.119281"
         x="65.940727"
         y="-219.1362"
         id="text860-4-4-2"
         transform="scale(1.0145573,0.98565158)"><tspan
           sodipodi:role="line"
           id="tspan858-4-8-6"
           x="65.940727"
           y="-219.1362"
           style="font-style:normal;font-variant:normal;font-weight:bold;font-stretch:normal;font-family:Roboto;-inkscape-font-specification:'Roboto Bold';letter-spacing:1.55692px;fill:#000000;stroke-width:0.119281">AERUS</tspan></text>
      <text
         xml:space="preserve"
         style="font-style:normal;font-variant:normal;font-weight:normal;font-stretch:normal;font-size:4.63169px;line-height:1.23;font-family:Roboto;-inkscape-font-specification:Roboto;letter-spacing:1.51139px;word-spacing:0px;fill:#000000;fill-opacity:1;stroke:none;stroke-width:0.115792"
         x="63.102581"
         y="-219.01184"
         id="text860-7-7-2-1-0-4-4-0-5"
         transform="scale(1.0153485,0.98488352)"><tspan
           sodipodi:role="line"
           x="63.102581"
           y="-219.01184"
           style="font-style:normal;font-variant:normal;font-weight:bold;font-stretch:normal;line-height:1.23;font-family:Roboto;-inkscape-font-specification:'Roboto Bold';letter-spacing:1.51139px;fill:#000000;stroke-width:0.115792"
           id="tspan1122-5-4-4-8">-</tspan><tspan
           sodipodi:role="line"
           x="63.102581"
           y="-213.31487"
           id="tspan983-27-7-2-79" /></text>
      <text
         xml:space="preserve"
         style="font-style:normal;font-variant:normal;font-weight:normal;font-stretch:normal;font-size:4.63169px;line-height:1.17;font-family:Roboto;-inkscape-font-specification:Roboto;letter-spacing:1.51077px;word-spacing:0px;fill:#000000;fill-opacity:1;stroke:none;stroke-width:0.115792"
         x="58.24374"
         y="-219.26045"
         id="text860-7-7-2-1-0-3-6-9-6"
         transform="scale(1.0153485,0.98488352)"><tspan
           sodipodi:role="line"
           x="58.24374"
           y="-219.26045"
           style="font-style:normal;font-variant:normal;font-weight:bold;font-stretch:normal;font-size:4.93889px;line-height:1.17;font-family:Roboto;-inkscape-font-specification:'Roboto Bold';letter-spacing:1.51077px;fill:#000000;stroke-width:0.115792"
           id="tspan973-4-3-6-0">N</tspan><tspan
           sodipodi:role="line"
           x="58.24374"
           y="-213.75214"
           id="tspan983-16-1-1-4" /></text>
    </g>
    <g
       id="g1251-3-7-0-1"
       transform="matrix(1.2228181,0,0,1.2228181,1333.6316,1048.6416)"
       style="fill:#000000">
      <text
         xml:space="preserve"
         style="font-style:normal;font-variant:normal;font-weight:normal;font-stretch:normal;font-size:4.77124px;line-height:1.25;font-family:Roboto;-inkscape-font-specification:Roboto;letter-spacing:0px;word-spacing:0px;fill:#000000;fill-opacity:1;stroke:none;stroke-width:0.119281"
         x="65.940727"
         y="-219.1362"
         id="text860-0-5-4-0"
         transform="scale(1.0145573,0.98565158)"><tspan
           sodipodi:role="line"
           id="tspan858-2-9-2-4"
           x="65.940727"
           y="-219.1362"
           style="font-style:normal;font-variant:normal;font-weight:bold;font-stretch:normal;font-family:Roboto;-inkscape-font-specification:'Roboto Bold';letter-spacing:1.55692px;fill:#000000;stroke-width:0.119281">AERUS</tspan></text>
      <text
         xml:space="preserve"
         style="font-style:normal;font-variant:normal;font-weight:normal;font-stretch:normal;font-size:4.63169px;line-height:1.23;font-family:Roboto;-inkscape-font-specification:Roboto;letter-spacing:1.51139px;word-spacing:0px;fill:#000000;fill-opacity:1;stroke:none;stroke-width:0.115792"
         x="63.102581"
         y="-219.01184"
         id="text860-7-7-2-1-0-4-1-6-2-8"
         transform="scale(1.0153485,0.98488352)"><tspan
           sodipodi:role="line"
           x="63.102581"
           y="-219.01184"
           style="font-style:normal;font-variant:normal;font-weight:bold;font-stretch:normal;line-height:1.23;font-family:Roboto;-inkscape-font-specification:'Roboto Bold';letter-spacing:1.51139px;fill:#000000;stroke-width:0.115792"
           id="tspan1122-5-5-21-2-70">-</tspan><tspan
           sodipodi:role="line"
           x="63.102581"
           y="-213.31487"
           id="tspan983-27-6-7-0-8" /></text>
      <text
         xml:space="preserve"
         style="font-style:normal;font-variant:normal;font-weight:normal;font-stretch:normal;font-size:4.63169px;line-height:1.17;font-family:Roboto;-inkscape-font-specification:Roboto;letter-spacing:1.51077px;word-spacing:0px;fill:#000000;fill-opacity:1;stroke:none;stroke-width:0.115792"
         x="58.24374"
         y="-219.26045"
         id="text860-7-7-2-1-0-3-5-85-5-62"
         transform="scale(1.0153485,0.98488352)"><tspan
           sodipodi:role="line"
           x="58.24374"
           y="-219.26045"
           style="font-style:normal;font-variant:normal;font-weight:bold;font-stretch:normal;font-size:4.93889px;line-height:1.17;font-family:Roboto;-inkscape-font-specification:'Roboto Bold';letter-spacing:1.51077px;fill:#000000;stroke-width:0.115792"
           id="tspan973-4-0-7-5-4">N</tspan><tspan
           sodipodi:role="line"
           x="58.24374"
           y="-213.75214"
           id="tspan983-16-3-4-2-7" /></text>
    </g>
    <g
       id="g1251-3-4-1-9-93"
       transform="matrix(1.2228181,0,0,1.2228181,1328.3535,1055.6823)"
       style="fill:#000000">
      <text
         xml:space="preserve"
         style="font-style:normal;font-variant:normal;font-weight:normal;font-stretch:normal;font-size:4.77124px;line-height:1.25;font-family:Roboto;-inkscape-font-specification:Roboto;letter-spacing:0px;word-spacing:0px;fill:#000000;fill-opacity:1;stroke:none;stroke-width:0.119281"
         x="65.940727"
         y="-219.1362"
         id="text860-0-6-8-0-9"
         transform="scale(1.0145573,0.98565158)"><tspan
           sodipodi:role="line"
           id="tspan858-2-6-5-2-2"
           x="65.940727"
           y="-219.1362"
           style="font-style:normal;font-variant:normal;font-weight:bold;font-stretch:normal;font-family:Roboto;-inkscape-font-specification:'Roboto Bold';letter-spacing:1.55692px;fill:#000000;stroke-width:0.119281">AERUS</tspan></text>
      <text
         xml:space="preserve"
         style="font-style:normal;font-variant:normal;font-weight:normal;font-stretch:normal;font-size:4.63169px;line-height:1.23;font-family:Roboto;-inkscape-font-specification:Roboto;letter-spacing:1.51139px;word-spacing:0px;fill:#000000;fill-opacity:1;stroke:none;stroke-width:0.115792"
         x="63.102581"
         y="-219.01184"
         id="text860-7-7-2-1-0-4-1-0-9-8-8"
         transform="scale(1.0153485,0.98488352)"><tspan
           sodipodi:role="line"
           x="63.102581"
           y="-219.01184"
           style="font-style:normal;font-variant:normal;font-weight:bold;font-stretch:normal;line-height:1.23;font-family:Roboto;-inkscape-font-specification:'Roboto Bold';letter-spacing:1.51139px;fill:#000000;stroke-width:0.115792"
           id="tspan1122-5-5-2-7-3-3">-</tspan><tspan
           sodipodi:role="line"
           x="63.102581"
           y="-213.31487"
           id="tspan983-27-6-5-5-8-0" /></text>
      <text
         xml:space="preserve"
         style="font-style:normal;font-variant:normal;font-weight:normal;font-stretch:normal;font-size:4.63169px;line-height:1.17;font-family:Roboto;-inkscape-font-specification:Roboto;letter-spacing:1.51077px;word-spacing:0px;fill:#000000;fill-opacity:1;stroke:none;stroke-width:0.115792"
         x="58.24374"
         y="-219.26045"
         id="text860-7-7-2-1-0-3-5-8-3-0-1"
         transform="scale(1.0153485,0.98488352)"><tspan
           sodipodi:role="line"
           x="58.24374"
           y="-219.26045"
           style="font-style:normal;font-variant:normal;font-weight:bold;font-stretch:normal;font-size:4.93889px;line-height:1.17;font-family:Roboto;-inkscape-font-specification:'Roboto Bold';letter-spacing:1.51077px;fill:#000000;stroke-width:0.115792"
           id="tspan973-4-0-5-8-4-7">N</tspan><tspan
           sodipodi:role="line"
           x="58.24374"
           y="-213.75214"
           id="tspan983-16-3-0-8-0-8" /></text>
    </g>
    <g
       id="g1251-6-3-9-91"
       transform="matrix(1.2228181,0,0,1.2228181,1312.9797,1076.7815)"
       style="fill:#000000">
      <text
         xml:space="preserve"
         style="font-style:normal;font-variant:normal;font-weight:normal;font-stretch:normal;font-size:4.77124px;line-height:1.25;font-family:Roboto;-inkscape-font-specification:Roboto;letter-spacing:0px;word-spacing:0px;fill:#000000;fill-opacity:1;stroke:none;stroke-width:0.119281"
         x="65.940727"
         y="-219.1362"
         id="text860-08-1-1-5"
         transform="scale(1.0145573,0.98565158)"><tspan
           sodipodi:role="line"
           id="tspan858-3-8-9-4"
           x="65.940727"
           y="-219.1362"
           style="font-style:normal;font-variant:normal;font-weight:bold;font-stretch:normal;font-family:Roboto;-inkscape-font-specification:'Roboto Bold';letter-spacing:1.55692px;fill:#000000;stroke-width:0.119281">AERUS</tspan></text>
      <text
         xml:space="preserve"
         style="font-style:normal;font-variant:normal;font-weight:normal;font-stretch:normal;font-size:4.63169px;line-height:1.23;font-family:Roboto;-inkscape-font-specification:Roboto;letter-spacing:1.51139px;word-spacing:0px;fill:#000000;fill-opacity:1;stroke:none;stroke-width:0.115792"
         x="63.102581"
         y="-219.01184"
         id="text860-7-7-2-1-0-4-7-9-6-9"
         transform="scale(1.0153485,0.98488352)"><tspan
           sodipodi:role="line"
           x="63.102581"
           y="-219.01184"
           style="font-style:normal;font-variant:normal;font-weight:bold;font-stretch:normal;line-height:1.23;font-family:Roboto;-inkscape-font-specification:'Roboto Bold';letter-spacing:1.51139px;fill:#000000;stroke-width:0.115792"
           id="tspan1122-5-8-6-2-2">-</tspan><tspan
           sodipodi:role="line"
           x="63.102581"
           y="-213.31487"
           id="tspan983-27-2-4-5-5" /></text>
      <text
         xml:space="preserve"
         style="font-style:normal;font-variant:normal;font-weight:normal;font-stretch:normal;font-size:4.63169px;line-height:1.17;font-family:Roboto;-inkscape-font-specification:Roboto;letter-spacing:1.51077px;word-spacing:0px;fill:#000000;fill-opacity:1;stroke:none;stroke-width:0.115792"
         x="58.24374"
         y="-219.26045"
         id="text860-7-7-2-1-0-3-1-33-4-7"
         transform="scale(1.0153485,0.98488352)"><tspan
           sodipodi:role="line"
           x="58.24374"
           y="-219.26045"
           style="font-style:normal;font-variant:normal;font-weight:bold;font-stretch:normal;font-size:4.93889px;line-height:1.17;font-family:Roboto;-inkscape-font-specification:'Roboto Bold';letter-spacing:1.51077px;fill:#000000;stroke-width:0.115792"
           id="tspan973-4-8-3-4-49">N</tspan><tspan
           sodipodi:role="line"
           x="58.24374"
           y="-213.75214"
           id="tspan983-16-5-8-9-9" /></text>
    </g>
  </g>
</svg>
