<?xml version="1.0" encoding="UTF-8" standalone="no"?>
<svg
   xmlns:dc="http://purl.org/dc/elements/1.1/"
   xmlns:cc="http://creativecommons.org/ns#"
   xmlns:rdf="http://www.w3.org/1999/02/22-rdf-syntax-ns#"
   xmlns:svg="http://www.w3.org/2000/svg"
   xmlns="http://www.w3.org/2000/svg"
   id="svg1182"
   version="1.1"
   viewBox="0 0 39.894852 9.9818611"
   height="37.726719"
   width="150.78369">
  <defs
     id="defs1176" />
  <metadata
     id="metadata1179">
    <rdf:RDF>
      <cc:Work
         rdf:about="">
        <dc:format>image/svg+xml</dc:format>
        <dc:type
           rdf:resource="http://purl.org/dc/dcmitype/StillImage" />
        <dc:title></dc:title>
      </cc:Work>
    </rdf:RDF>
  </metadata>
  <g
     transform="translate(301.91766,2.7230757)"
     id="layer1">
    <text
       xml:space="preserve"
       style="font-style:normal;font-weight:normal;font-size:10.9838px;line-height:1.25;font-family:sans-serif;letter-spacing:0px;word-spacing:0px;fill:#ffffff;fill-opacity:1;stroke:none;stroke-width:0.274595"
       x="-298.19568"
       y="2.8247344"
       id="text1444-11-3-9-0-1"><tspan
         id="tspan1442-5-8-7-8-0"
         x="-298.19568"
         y="2.8247344"
         style="font-style:normal;font-variant:normal;font-weight:bold;font-stretch:normal;font-size:7.32253px;font-family:sans-serif;-inkscape-font-specification:'sans-serif Bold';fill:#ffffff;stroke-width:0.274595">N-AERUS</tspan></text>
    <text
       xml:space="preserve"
       style="font-style:normal;font-variant:normal;font-weight:normal;font-stretch:normal;font-size:2.80583px;line-height:1.15;font-family:Roboto;-inkscape-font-specification:Roboto;letter-spacing:0.91521px;word-spacing:0px;fill:#ffffff;fill-opacity:1;stroke:none;stroke-width:0.0701458"
       x="-297.45599"
       y="-0.63779557"
       id="text860-7-7-2-1-0-5-4-6-3"
       transform="scale(1.0153485,0.98488352)"><tspan
         x="-297.45599"
         y="-0.63779557"
         style="font-style:normal;font-variant:normal;font-weight:bold;font-stretch:normal;font-size:2.99193px;line-height:1.15;font-family:Roboto;-inkscape-font-specification:'Roboto Bold';letter-spacing:0.91521px;fill:#ffffff;stroke-width:0.0701458"
         id="tspan981-5-0-3-7">U</tspan><tspan
         x="-297.45599"
         y="2.8029239"
         style="font-style:normal;font-variant:normal;font-weight:bold;font-stretch:normal;font-size:2.99193px;line-height:1.15;font-family:Roboto;-inkscape-font-specification:'Roboto Bold';letter-spacing:0.91521px;fill:#ffffff;stroke-width:0.0701458"
         id="tspan983-279-1-3-8">S</tspan></text>
    <g
       style="fill:#ffffff"
       transform="matrix(0.60579034,0,0,0.60579034,-337.83117,138.07679)"
       id="g1251-6-5-48-0-7-8">
      <text
         transform="scale(1.0145573,0.98565158)"
         id="text860-08-0-5-1-4-6"
         y="-219.1362"
         x="65.940727"
         style="font-style:normal;font-variant:normal;font-weight:normal;font-stretch:normal;font-size:4.77124px;line-height:1.25;font-family:Roboto;-inkscape-font-specification:Roboto;letter-spacing:0px;word-spacing:0px;fill:#ffffff;fill-opacity:1;stroke:none;stroke-width:0.119281"
         xml:space="preserve"><tspan
           style="font-style:normal;font-variant:normal;font-weight:bold;font-stretch:normal;font-family:Roboto;-inkscape-font-specification:'Roboto Bold';letter-spacing:1.55692px;fill:#ffffff;stroke-width:0.119281"
           y="-219.1362"
           x="65.940727"
           id="tspan858-3-7-1-6-3-0">AERUS</tspan></text>
      <text
         transform="scale(1.0153485,0.98488352)"
         id="text860-7-7-2-1-0-4-7-3-29-7-7-4"
         y="-219.01184"
         x="63.102581"
         style="font-style:normal;font-variant:normal;font-weight:normal;font-stretch:normal;font-size:4.63169px;line-height:1.23;font-family:Roboto;-inkscape-font-specification:Roboto;letter-spacing:1.51139px;word-spacing:0px;fill:#ffffff;fill-opacity:1;stroke:none;stroke-width:0.115792"
         xml:space="preserve"><tspan
           id="tspan1122-5-8-8-7-5-1-6"
           style="font-style:normal;font-variant:normal;font-weight:bold;font-stretch:normal;line-height:1.23;font-family:Roboto;-inkscape-font-specification:'Roboto Bold';letter-spacing:1.51139px;fill:#ffffff;stroke-width:0.115792"
           y="-219.01184"
           x="63.102581">-</tspan><tspan
           id="tspan983-27-2-2-3-7-3-7"
           y="-213.31487"
           x="63.102581" /></text>
      <text
         transform="scale(1.0153485,0.98488352)"
         id="text860-7-7-2-1-0-3-1-3-8-8-9-6"
         y="-219.26045"
         x="58.24374"
         style="font-style:normal;font-variant:normal;font-weight:normal;font-stretch:normal;font-size:4.63169px;line-height:1.17;font-family:Roboto;-inkscape-font-specification:Roboto;letter-spacing:1.51077px;word-spacing:0px;fill:#ffffff;fill-opacity:1;stroke:none;stroke-width:0.115792"
         xml:space="preserve"><tspan
           id="tspan973-4-8-7-2-9-4-0"
           style="font-style:normal;font-variant:normal;font-weight:bold;font-stretch:normal;font-size:4.93889px;line-height:1.17;font-family:Roboto;-inkscape-font-specification:'Roboto Bold';letter-spacing:1.51077px;fill:#ffffff;stroke-width:0.115792"
           y="-219.26045"
           x="58.24374">N</tspan><tspan
           id="tspan983-16-5-7-31-0-2-9"
           y="-213.75214"
           x="58.24374" /></text>
    </g>
  </g>
</svg>
