<?xml version="1.0" encoding="UTF-8" standalone="no"?>
<svg
   xmlns:dc="http://purl.org/dc/elements/1.1/"
   xmlns:cc="http://creativecommons.org/ns#"
   xmlns:rdf="http://www.w3.org/1999/02/22-rdf-syntax-ns#"
   xmlns:svg="http://www.w3.org/2000/svg"
   xmlns="http://www.w3.org/2000/svg"
   xmlns:sodipodi="http://sodipodi.sourceforge.net/DTD/sodipodi-0.dtd"
   xmlns:inkscape="http://www.inkscape.org/namespaces/inkscape"
   sodipodi:docname="search.svg"
   inkscape:version="1.0 (1.0+r73+1)"
   id="svg1339"
   version="1.1"
   viewBox="0 0 9.4406891 8.9958335"
   height="8.9958334mm"
   width="9.4406891mm">
  <defs
     id="defs1333" />
  <sodipodi:namedview
     inkscape:window-maximized="1"
     inkscape:window-y="27"
     inkscape:window-x="70"
     inkscape:window-height="836"
     inkscape:window-width="1530"
     fit-margin-bottom="0"
     fit-margin-right="0"
     fit-margin-left="0"
     fit-margin-top="0"
     showgrid="false"
     inkscape:document-rotation="0"
     inkscape:current-layer="layer1"
     inkscape:document-units="mm"
     inkscape:cy="269.66905"
     inkscape:cx="-311.28451"
     inkscape:zoom="0.35"
     inkscape:pageshadow="2"
     inkscape:pageopacity="0.0"
     borderopacity="1.0"
     bordercolor="#666666"
     pagecolor="#ffffff"
     id="base" />
  <metadata
     id="metadata1336">
    <rdf:RDF>
      <cc:Work
         rdf:about="">
        <dc:format>image/svg+xml</dc:format>
        <dc:type
           rdf:resource="http://purl.org/dc/dcmitype/StillImage" />
        <dc:title></dc:title>
      </cc:Work>
    </rdf:RDF>
  </metadata>
  <g
     transform="translate(-22.255215,-52.48896)"
     id="layer1"
     inkscape:groupmode="layer"
     inkscape:label="Ebene 1">
    <rect
       style="fill:#000000;fill-opacity:1;stroke:none;stroke-width:0.146749;stroke-miterlimit:4;stroke-dasharray:none"
       id="rect1174-9-3-2-9-6-5-6-9"
       width="9.4406891"
       height="8.9958334"
       x="22.255215"
       y="52.48896"
       ry="0"
       rx="0" />
    <path
       style="fill:#ffffff;stroke-width:0.0234672"
       d="m 29.66562,59.025866 c 0.033,-0.0291 0.08,-0.0848 0.1036,-0.12379 0.043,-0.0702 0.044,-0.0909 0.044,-2.06874 0,-1.97782 -2.9e-4,-1.9986 -0.044,-2.06874 -0.024,-0.039 -0.071,-0.0947 -0.1036,-0.12379 -0.059,-0.0527 -0.068,-0.0529 -2.5883,-0.0529 -2.521,0 -2.5294,1.9e-4 -2.5885,0.0529 -0.033,0.0291 -0.079,0.0848 -0.1035,0.12376 -0.043,0.0699 -0.044,0.0975 -0.05,2.00007 0,1.06106 -5e-4,1.96639 0.01,2.01186 0.016,0.10285 0.1057,0.23396 0.1921,0.27918 0.054,0.0281 0.5204,0.0332 2.5693,0.0287 2.4918,-0.006 2.5042,-0.006 2.5632,-0.0585 z m -4.9919,-2.08424 v -1.73938 l 0.8209,0.9835 0.8207,0.9835 -0.6437,0.75461 -0.6438,0.75461 -0.1771,9.53e-4 -0.177,9.52e-4 z m 0.8602,1.73175 c 0.01,-0.004 0.2391,-0.27663 0.5204,-0.60538 l 0.5113,-0.59774 0.1573,0.18225 c 0.2957,0.34291 0.4328,0.3439 0.7266,0.006 l 0.1535,-0.17702 0.5151,0.59982 0.515,0.59983 -1.5541,2.91e-4 c -0.8547,1.9e-4 -1.5501,-0.003 -1.5451,-0.008 z m 2.9704,-0.74912 -0.6438,-0.75442 0.8102,-0.97098 0.81,-0.97097 v 1.72656 1.72656 l -0.1663,-9.52e-4 -0.1662,-9.53e-4 -0.6439,-0.75442 z m -2.4679,-1.70947 -1.03,-1.22811 2.0816,-1.9e-4 2.0816,-2e-4 -0.9764,1.14998 c -0.5371,0.63247 -1.0103,1.1852 -1.0516,1.22828 l -0.075,0.0783 -1.03,-1.2281 z"
       id="path4814-6"
       sodipodi:nodetypes="ssscssssscssssccccccccccscssccccccccccccccccccccssccc" />
  </g>
</svg>
