<?xml version="1.0" encoding="UTF-8" standalone="no"?>
<svg
   xmlns:dc="http://purl.org/dc/elements/1.1/"
   xmlns:cc="http://creativecommons.org/ns#"
   xmlns:rdf="http://www.w3.org/1999/02/22-rdf-syntax-ns#"
   xmlns:svg="http://www.w3.org/2000/svg"
   xmlns="http://www.w3.org/2000/svg"
   width="85.197403mm"
   height="39.486099mm"
   viewBox="0 0 85.197403 39.486099"
   version="1.1"
   id="svg1508">
  <defs
     id="defs1502" />
  <metadata
     id="metadata1505">
    <rdf:RDF>
      <cc:Work
         rdf:about="">
        <dc:format>image/svg+xml</dc:format>
        <dc:type
           rdf:resource="http://purl.org/dc/dcmitype/StillImage" />
        <dc:title></dc:title>
      </cc:Work>
    </rdf:RDF>
  </metadata>
  <g
     transform="translate(-112.91124,-197.51214)"
     id="layer1">
    <text
       transform="scale(1.0153485,0.98488352)"
       id="text860-7-7-2-1-0-5-4-61-1-7-8-6"
       y="283.47717"
       x="12.160664"
       style="font-style:normal;font-variant:normal;font-weight:normal;font-stretch:normal;font-size:3.48657px;line-height:1.15;font-family:Roboto;-inkscape-font-specification:Roboto;letter-spacing:1.13725px;word-spacing:0px;fill:#ffffff;fill-opacity:1;stroke:none;stroke-width:0.0871641"
       xml:space="preserve"><tspan
         id="tspan983-279-1-7-4-2-9-9"
         style="font-style:normal;font-variant:normal;font-weight:bold;font-stretch:normal;font-size:3.71782px;line-height:1.15;font-family:Roboto;-inkscape-font-specification:'Roboto Bold';letter-spacing:1.13725px;fill:#ffffff;stroke-width:0.0871641"
         y="283.47717"
         x="12.160664" /></text>
    <g
       id="g1546-8-6-6-3"
       transform="matrix(0.99276982,0,0,0.99276982,-45.328124,230.53784)"
       style="fill:#ffffff">
      <g
         style="font-style:normal;font-variant:normal;font-weight:normal;font-stretch:normal;font-size:4.63169px;line-height:1.15;font-family:Roboto;-inkscape-font-specification:Roboto;letter-spacing:1.51077px;word-spacing:0px;fill:#ffffff;fill-opacity:1;stroke:none;stroke-width:0.115792"
         id="text860-7-7-2-1-0-8-1-7-6"
         transform="scale(1.0153485,0.98488352)"
         aria-label="-
A
E
R
U
S">
        <g
           transform="matrix(0.99205627,0,0,1.0227431,143.65904,-46.786102)"
           aria-label="Network-Association  of European  Researchers  on Urbanisation  in the South"
           id="text1324"
           style="font-style:normal;font-weight:normal;font-size:3.175px;line-height:1.25;font-family:sans-serif;letter-spacing:0px;word-spacing:0px;fill:#ffffff;fill-opacity:1;stroke:none;stroke-width:0.264583">
          <path
             d="m 66.785928,33.971549 h 0.42168 l 1.026294,1.936316 v -1.936316 h 0.303857 v 2.314588 H 68.11608 l -1.026294,-1.936316 v 1.936316 h -0.303858 z"
             style="font-size:3.175px;fill:#ffffff;stroke-width:0.264583"
             id="path3118" />
          <path
             d="m 70.633756,35.346659 v 0.139526 h -1.311548 q 0.0186,0.294556 0.176733,0.449585 0.15968,0.153479 0.443384,0.153479 0.164331,0 0.31781,-0.04031 0.155029,-0.04031 0.306958,-0.120923 v 0.269751 q -0.153479,0.06511 -0.31471,0.09922 -0.16123,0.03411 -0.327111,0.03411 -0.415479,0 -0.658875,-0.241846 -0.241846,-0.241845 -0.241846,-0.654223 0,-0.426331 0.229444,-0.675928 0.230993,-0.251147 0.621667,-0.251147 0.350366,0 0.553455,0.226342 0.204639,0.224793 0.204639,0.612366 z m -0.285254,-0.08372 q -0.0031,-0.234094 -0.131775,-0.37362 -0.127124,-0.139527 -0.337964,-0.139527 -0.238745,0 -0.382923,0.134876 -0.142626,0.134875 -0.164331,0.379822 z"
             style="font-size:3.175px;fill:#ffffff;stroke-width:0.264583"
             id="path3120" />
          <path
             d="m 71.384097,34.056815 v 0.492994 h 0.587561 V 34.7715 h -0.587561 v 0.942579 q 0,0.21239 0.05736,0.272851 0.05891,0.06046 0.237195,0.06046 h 0.293005 v 0.238745 h -0.293005 q -0.330213,0 -0.455786,-0.122474 -0.125574,-0.124023 -0.125574,-0.449584 V 34.7715 h -0.20929 v -0.221691 h 0.20929 v -0.492994 z"
             style="font-size:3.175px;fill:#ffffff;stroke-width:0.264583"
             id="path3122" />
          <path
             d="m 72.182498,34.549809 h 0.285254 l 0.356567,1.354956 0.355017,-1.354956 h 0.336414 l 0.356567,1.354956 0.355017,-1.354956 h 0.285254 l -0.454235,1.736328 h -0.336414 l -0.373621,-1.423169 -0.375171,1.423169 h -0.336413 z"
             style="font-size:3.175px;fill:#ffffff;stroke-width:0.264583"
             id="path3124" />
          <path
             d="m 75.619497,34.749796 q -0.229443,0 -0.362768,0.179834 -0.133325,0.178284 -0.133325,0.489893 0,0.311609 0.131775,0.491443 0.133325,0.178283 0.364318,0.178283 0.227894,0 0.361219,-0.179834 0.133325,-0.179834 0.133325,-0.489892 0,-0.308508 -0.133325,-0.488342 -0.133325,-0.181385 -0.361219,-0.181385 z m 0,-0.241845 q 0.372071,0 0.584461,0.241845 0.21239,0.241846 0.21239,0.669727 0,0.42633 -0.21239,0.669726 -0.21239,0.241846 -0.584461,0.241846 -0.37362,0 -0.58601,-0.241846 -0.21084,-0.243396 -0.21084,-0.669726 0,-0.427881 0.21084,-0.669727 0.21239,-0.241845 0.58601,-0.241845 z"
             style="font-size:3.175px;fill:#ffffff;stroke-width:0.264583"
             id="path3126" />
          <path
             d="m 77.893777,34.816459 q -0.04806,-0.02791 -0.10542,-0.04031 -0.05581,-0.01395 -0.124023,-0.01395 -0.241846,0 -0.372071,0.15813 -0.128674,0.156579 -0.128674,0.451135 v 0.914673 h -0.286804 v -1.736328 h 0.286804 v 0.269751 q 0.08992,-0.15813 0.234094,-0.234095 0.144178,-0.07751 0.350367,-0.07751 0.02945,0 0.06511,0.0046 0.03566,0.0031 0.07906,0.01085 z"
             style="font-size:3.175px;fill:#ffffff;stroke-width:0.264583"
             id="path3128" />
          <path
             d="m 78.185233,33.873881 h 0.286804 V 35.2986 l 0.851111,-0.748791 h 0.364319 l -0.920874,0.812353 0.959631,0.923975 h -0.37207 l -0.882117,-0.848011 v 0.848011 h -0.286804 z"
             style="font-size:3.175px;fill:#ffffff;stroke-width:0.264583"
             id="path3130" />
          <path
             d="m 79.893655,35.289298 h 0.835608 v 0.254248 h -0.835608 z"
             style="font-size:3.175px;fill:#ffffff;stroke-width:0.264583"
             id="path3132" />
          <path
             d="m 81.902835,34.280058 -0.42478,1.151867 h 0.85111 z m -0.176734,-0.308509 h 0.355018 l 0.882116,2.314588 h -0.325561 l -0.21084,-0.593763 h -1.043347 l -0.21084,0.593763 h -0.330212 z"
             style="font-size:3.175px;fill:#ffffff;stroke-width:0.264583"
             id="path3134" />
          <path
             d="m 84.394157,34.600968 v 0.269751 q -0.120923,-0.06201 -0.251148,-0.09302 -0.130224,-0.03101 -0.269751,-0.03101 -0.21239,0 -0.31936,0.06511 -0.10542,0.06511 -0.10542,0.195337 0,0.09922 0.07596,0.15658 0.07597,0.05581 0.305408,0.10697 l 0.09767,0.0217 q 0.303858,0.06511 0.430982,0.184485 0.128674,0.117822 0.128674,0.330212 0,0.241846 -0.192236,0.382922 -0.190686,0.141077 -0.525549,0.141077 -0.139527,0 -0.291456,-0.0279 -0.150378,-0.02636 -0.31781,-0.08062 v -0.294556 q 0.15813,0.08217 0.311609,0.124023 0.153479,0.04031 0.303858,0.04031 0.201538,0 0.310058,-0.06821 0.108521,-0.06976 0.108521,-0.195337 0,-0.116272 -0.07906,-0.178283 -0.07752,-0.06201 -0.342615,-0.119373 l -0.09922,-0.02325 q -0.2651,-0.05581 -0.382922,-0.170533 -0.117822,-0.116272 -0.117822,-0.31781 0,-0.244946 0.173633,-0.378271 0.173632,-0.133325 0.492993,-0.133325 0.15813,0 0.297656,0.02325 0.139526,0.02325 0.257349,0.06976 z"
             style="font-size:3.175px;fill:#ffffff;stroke-width:0.264583"
             id="path3136" />
          <path
             d="m 86.049869,34.600968 v 0.269751 q -0.120923,-0.06201 -0.251148,-0.09302 -0.130224,-0.03101 -0.269751,-0.03101 -0.21239,0 -0.31936,0.06511 -0.10542,0.06511 -0.10542,0.195337 0,0.09922 0.07596,0.15658 0.07596,0.05581 0.305408,0.10697 l 0.09767,0.0217 q 0.303857,0.06511 0.430981,0.184485 0.128674,0.117822 0.128674,0.330212 0,0.241846 -0.192236,0.382922 -0.190686,0.141077 -0.525549,0.141077 -0.139527,0 -0.291455,-0.0279 -0.150379,-0.02636 -0.31781,-0.08062 v -0.294556 q 0.158129,0.08217 0.311608,0.124023 0.153479,0.04031 0.303858,0.04031 0.201538,0 0.310058,-0.06821 0.108521,-0.06976 0.108521,-0.195337 0,-0.116272 -0.07906,-0.178283 -0.07751,-0.06201 -0.342615,-0.119373 l -0.09922,-0.02325 q -0.265101,-0.05581 -0.382923,-0.170533 -0.117822,-0.116272 -0.117822,-0.31781 0,-0.244946 0.173633,-0.378271 0.173633,-0.133325 0.492993,-0.133325 0.15813,0 0.297656,0.02325 0.139526,0.02325 0.257349,0.06976 z"
             style="font-size:3.175px;fill:#ffffff;stroke-width:0.264583"
             id="path3138" />
          <path
             d="m 87.271499,34.749796 q -0.229443,0 -0.362769,0.179834 -0.133325,0.178284 -0.133325,0.489893 0,0.311609 0.131775,0.491443 0.133325,0.178283 0.364319,0.178283 0.227893,0 0.361218,-0.179834 0.133325,-0.179834 0.133325,-0.489892 0,-0.308508 -0.133325,-0.488342 -0.133325,-0.181385 -0.361218,-0.181385 z m 0,-0.241845 q 0.37207,0 0.58446,0.241845 0.21239,0.241846 0.21239,0.669727 0,0.42633 -0.21239,0.669726 -0.21239,0.241846 -0.58446,0.241846 -0.373621,0 -0.586011,-0.241846 -0.21084,-0.243396 -0.21084,-0.669726 0,-0.427881 0.21084,-0.669727 0.21239,-0.241845 0.586011,-0.241845 z"
             style="font-size:3.175px;fill:#ffffff;stroke-width:0.264583"
             id="path3140" />
          <path
             d="m 89.789175,34.616471 v 0.266651 q -0.120922,-0.06666 -0.243396,-0.09922 -0.120922,-0.03411 -0.244946,-0.03411 -0.277502,0 -0.430981,0.176734 -0.153479,0.175183 -0.153479,0.492993 0,0.31781 0.153479,0.494543 0.153479,0.175183 0.430981,0.175183 0.124024,0 0.244946,-0.03256 0.122474,-0.03411 0.243396,-0.100769 v 0.26355 q -0.119372,0.05581 -0.248046,0.08372 -0.127125,0.0279 -0.271302,0.0279 -0.392224,0 -0.623218,-0.246496 -0.230993,-0.246497 -0.230993,-0.665076 0,-0.42478 0.232544,-0.668176 0.234094,-0.243396 0.640271,-0.243396 0.131775,0 0.257348,0.02791 0.125574,0.02635 0.243396,0.08061 z"
             style="font-size:3.175px;fill:#ffffff;stroke-width:0.264583"
             id="path3142" />
          <path
             d="m 90.288369,34.549809 h 0.285254 v 1.736328 h -0.285254 z m 0,-0.675928 h 0.285254 v 0.361218 h -0.285254 z"
             style="font-size:3.175px;fill:#ffffff;stroke-width:0.264583"
             id="path3144" />
          <path
             d="m 91.958036,35.413322 q -0.345716,0 -0.479041,0.07906 -0.133325,0.07906 -0.133325,0.269751 0,0.151928 0.09922,0.241845 0.100769,0.08837 0.272851,0.08837 0.237195,0 0.379822,-0.167432 0.144177,-0.168982 0.144177,-0.448034 v -0.06356 z m 0.568957,-0.117823 v 0.990638 h -0.285254 v -0.26355 q -0.09767,0.15813 -0.243396,0.234094 -0.145727,0.07441 -0.356567,0.07441 -0.266651,0 -0.42478,-0.148828 -0.15658,-0.150378 -0.15658,-0.401526 0,-0.293005 0.195337,-0.441833 0.196887,-0.148828 0.586011,-0.148828 h 0.399975 v -0.02791 q 0,-0.196887 -0.130224,-0.303857 -0.128675,-0.108521 -0.362769,-0.108521 -0.148828,0 -0.289905,0.03566 -0.141076,0.03566 -0.271301,0.10697 v -0.26355 q 0.15658,-0.06046 0.303857,-0.08992 0.147278,-0.03101 0.286805,-0.03101 0.376721,0 0.562756,0.195337 0.186035,0.195336 0.186035,0.592211 z"
             style="font-size:3.175px;fill:#ffffff;stroke-width:0.264583"
             id="path3146" />
          <path
             d="m 93.398256,34.056815 v 0.492994 h 0.587561 V 34.7715 h -0.587561 v 0.942579 q 0,0.21239 0.05736,0.272851 0.05891,0.06046 0.237195,0.06046 h 0.293005 v 0.238745 h -0.293005 q -0.330212,0 -0.455786,-0.122474 -0.125574,-0.124023 -0.125574,-0.449584 V 34.7715 h -0.209289 v -0.221691 h 0.209289 v -0.492994 z"
             style="font-size:3.175px;fill:#ffffff;stroke-width:0.264583"
             id="path3148" />
          <path
             d="m 94.36254,34.549809 h 0.285254 v 1.736328 H 94.36254 Z m 0,-0.675928 h 0.285254 v 0.361218 H 94.36254 Z"
             style="font-size:3.175px;fill:#ffffff;stroke-width:0.264583"
             id="path3150" />
          <path
             d="m 95.915933,34.749796 q -0.229444,0 -0.362769,0.179834 -0.133325,0.178284 -0.133325,0.489893 0,0.311609 0.131775,0.491443 0.133325,0.178283 0.364319,0.178283 0.227893,0 0.361218,-0.179834 0.133325,-0.179834 0.133325,-0.489892 0,-0.308508 -0.133325,-0.488342 -0.133325,-0.181385 -0.361218,-0.181385 z m 0,-0.241845 q 0.37207,0 0.58446,0.241845 0.21239,0.241846 0.21239,0.669727 0,0.42633 -0.21239,0.669726 -0.21239,0.241846 -0.58446,0.241846 -0.373621,0 -0.586011,-0.241846 -0.21084,-0.243396 -0.21084,-0.669726 0,-0.427881 0.21084,-0.669727 0.21239,-0.241845 0.586011,-0.241845 z"
             style="font-size:3.175px;fill:#ffffff;stroke-width:0.264583"
             id="path3152" />
          <path
             d="m 98.627396,35.238139 v 1.047998 H 98.342142 V 35.24744 q 0,-0.246496 -0.09612,-0.368969 -0.09612,-0.122474 -0.288355,-0.122474 -0.230993,0 -0.364318,0.147278 -0.133326,0.147278 -0.133326,0.401526 v 0.981336 h -0.286804 v -1.736328 h 0.286804 v 0.269751 q 0.10232,-0.15658 0.240296,-0.234095 0.139526,-0.07751 0.32091,-0.07751 0.299207,0 0.452686,0.186035 0.153479,0.184485 0.153479,0.544153 z"
             style="font-size:3.175px;fill:#ffffff;stroke-width:0.264583"
             id="path3154" />
          <path
             d="m 67.446353,38.718546 q -0.229443,0 -0.362768,0.179834 -0.133326,0.178284 -0.133326,0.489893 0,0.311609 0.131775,0.491443 0.133325,0.178283 0.364319,0.178283 0.227893,0 0.361218,-0.179834 0.133326,-0.179834 0.133326,-0.489892 0,-0.308508 -0.133326,-0.488342 -0.133325,-0.181385 -0.361218,-0.181385 z m 0,-0.241845 q 0.37207,0 0.584461,0.241845 0.21239,0.241846 0.21239,0.669727 0,0.42633 -0.21239,0.669726 -0.212391,0.241846 -0.584461,0.241846 -0.37362,0 -0.586011,-0.241846 -0.210839,-0.243396 -0.210839,-0.669726 0,-0.427881 0.210839,-0.669727 0.212391,-0.241845 0.586011,-0.241845 z"
             style="font-size:3.175px;fill:#ffffff;stroke-width:0.264583"
             id="path3156" />
          <path
             d="m 69.593509,37.842631 v 0.237195 h -0.272852 q -0.153479,0 -0.21394,0.06201 -0.05891,0.06201 -0.05891,0.223242 v 0.153479 h 0.469738 v 0.221692 h -0.469738 v 1.514637 H 68.761002 V 38.74025 H 68.48815 v -0.221692 h 0.272852 v -0.120922 q 0,-0.289905 0.134875,-0.42168 0.134875,-0.133325 0.427881,-0.133325 z"
             style="font-size:3.175px;fill:#ffffff;stroke-width:0.264583"
             id="path3158" />
          <path
             d="m 70.853897,37.940299 h 1.463476 v 0.26355 h -1.150317 v 0.685229 h 1.102258 v 0.26355 h -1.102258 v 0.838709 h 1.178223 v 0.26355 h -1.491382 z"
             style="font-size:3.175px;fill:#ffffff;stroke-width:0.264583"
             id="path3160" />
          <path
             d="m 72.821219,39.569657 v -1.051099 h 0.285254 v 1.040247 q 0,0.246497 0.09612,0.37052 0.09612,0.122473 0.288354,0.122473 0.230994,0 0.364319,-0.147278 0.134876,-0.147277 0.134876,-0.401526 v -0.984436 h 0.285254 v 1.736329 H 73.99014 v -0.266651 q -0.10387,0.15813 -0.241846,0.235645 -0.136426,0.07596 -0.31781,0.07596 -0.299207,0 -0.454236,-0.186035 -0.155029,-0.186035 -0.155029,-0.544153 z m 0.717786,-1.092956 z"
             style="font-size:3.175px;fill:#ffffff;stroke-width:0.264583"
             id="path3162" />
          <path
             d="m 75.872195,38.785209 q -0.04806,-0.02791 -0.10542,-0.04031 -0.05581,-0.01395 -0.124023,-0.01395 -0.241846,0 -0.37207,0.158129 -0.128675,0.15658 -0.128675,0.451136 v 0.914673 h -0.286804 v -1.736329 h 0.286804 v 0.269751 q 0.08992,-0.158129 0.234095,-0.234094 0.144177,-0.07751 0.350366,-0.07751 0.02945,0 0.06511,0.0046 0.03566,0.0031 0.07906,0.01085 z"
             style="font-size:3.175px;fill:#ffffff;stroke-width:0.264583"
             id="path3164" />
          <path
             d="m 76.779117,38.718546 q -0.229444,0 -0.362769,0.179834 -0.133325,0.178284 -0.133325,0.489893 0,0.311609 0.131775,0.491443 0.133325,0.178283 0.364319,0.178283 0.227893,0 0.361218,-0.179834 0.133325,-0.179834 0.133325,-0.489892 0,-0.308508 -0.133325,-0.488342 -0.133325,-0.181385 -0.361218,-0.181385 z m 0,-0.241845 q 0.37207,0 0.58446,0.241845 0.21239,0.241846 0.21239,0.669727 0,0.42633 -0.21239,0.669726 -0.21239,0.241846 -0.58446,0.241846 -0.373621,0 -0.586011,-0.241846 -0.21084,-0.243396 -0.21084,-0.669726 0,-0.427881 0.21084,-0.669727 0.21239,-0.241845 0.586011,-0.241845 z"
             style="font-size:3.175px;fill:#ffffff;stroke-width:0.264583"
             id="path3166" />
          <path
             d="m 78.323208,39.994437 v 0.920874 h -0.286804 v -2.396753 h 0.286804 v 0.26355 q 0.08992,-0.155029 0.226343,-0.229443 0.137976,-0.07596 0.328662,-0.07596 0.31626,0 0.513147,0.251147 0.198438,0.251147 0.198438,0.660425 0,0.409277 -0.198438,0.660425 -0.196887,0.251147 -0.513147,0.251147 -0.190686,0 -0.328662,-0.07441 -0.136426,-0.07596 -0.226343,-0.230994 z m 0.970484,-0.606164 q 0,-0.31471 -0.130225,-0.492993 -0.128674,-0.179834 -0.355017,-0.179834 -0.226343,0 -0.356567,0.179834 -0.128675,0.178283 -0.128675,0.492993 0,0.314709 0.128675,0.494543 0.130224,0.178284 0.356567,0.178284 0.226343,0 0.355017,-0.178284 0.130225,-0.179834 0.130225,-0.494543 z"
             style="font-size:3.175px;fill:#ffffff;stroke-width:0.264583"
             id="path3168" />
          <path
             d="m 81.547818,39.315409 v 0.139526 H 80.23627 q 0.0186,0.294556 0.176733,0.449585 0.159681,0.153479 0.443384,0.153479 0.164331,0 0.31781,-0.04031 0.155029,-0.04031 0.306958,-0.120923 v 0.269751 q -0.153479,0.06511 -0.314709,0.09922 -0.161231,0.03411 -0.327112,0.03411 -0.415479,0 -0.658875,-0.241846 -0.241845,-0.241845 -0.241845,-0.654223 0,-0.426331 0.229443,-0.675928 0.230994,-0.251147 0.621668,-0.251147 0.350366,0 0.553454,0.226342 0.204639,0.224793 0.204639,0.612366 z m -0.285254,-0.08372 q -0.0031,-0.234094 -0.131775,-0.37362 -0.127124,-0.139527 -0.337964,-0.139527 -0.238745,0 -0.382922,0.134876 -0.142627,0.134875 -0.164331,0.379822 z"
             style="font-size:3.175px;fill:#ffffff;stroke-width:0.264583"
             id="path3170" />
          <path
             d="m 82.805105,39.382072 q -0.345715,0 -0.47904,0.07906 -0.133325,0.07906 -0.133325,0.269751 0,0.151928 0.09922,0.241845 0.100769,0.08837 0.272852,0.08837 0.237195,0 0.379822,-0.167432 0.144177,-0.168982 0.144177,-0.448034 v -0.06356 z m 0.568958,-0.117823 v 0.990638 h -0.285254 v -0.26355 q -0.09767,0.15813 -0.243396,0.234094 -0.145728,0.07441 -0.356567,0.07441 -0.266651,0 -0.424781,-0.148828 -0.156579,-0.150378 -0.156579,-0.401526 0,-0.293005 0.195337,-0.441833 0.196887,-0.148829 0.58601,-0.148829 h 0.399976 v -0.0279 q 0,-0.196887 -0.130225,-0.303857 -0.128674,-0.108521 -0.362768,-0.108521 -0.148828,0 -0.289905,0.03566 -0.141077,0.03566 -0.271301,0.10697 v -0.26355 q 0.156579,-0.06046 0.303857,-0.08992 0.147278,-0.03101 0.286804,-0.03101 0.376722,0 0.562757,0.195336 0.186035,0.195337 0.186035,0.592212 z"
             style="font-size:3.175px;fill:#ffffff;stroke-width:0.264583"
             id="path3172" />
          <path
             d="m 85.406496,39.206889 v 1.047998 H 85.121243 V 39.21619 q 0,-0.246496 -0.09612,-0.368969 -0.09612,-0.122474 -0.288354,-0.122474 -0.230994,0 -0.364319,0.147278 -0.133325,0.147278 -0.133325,0.401526 v 0.981336 h -0.286804 v -1.736329 h 0.286804 v 0.269751 q 0.102319,-0.156579 0.240295,-0.234094 0.139527,-0.07751 0.320911,-0.07751 0.299206,0 0.452685,0.186035 0.153479,0.184485 0.153479,0.544153 z"
             style="font-size:3.175px;fill:#ffffff;stroke-width:0.264583"
             id="path3174" />
          <path
             d="m 67.883536,43.138431 q 0.100769,0.03411 0.195337,0.145728 0.09612,0.111621 0.192236,0.306958 l 0.31781,0.63252 H 68.252505 L 67.9564,43.629874 q -0.114722,-0.232544 -0.223243,-0.308508 -0.10697,-0.07596 -0.293005,-0.07596 h -0.341064 v 0.978235 h -0.31316 v -2.314588 h 0.706934 q 0.396875,0 0.592212,0.165881 0.195337,0.165882 0.195337,0.500745 0,0.218591 -0.10232,0.362769 -0.100769,0.144177 -0.294555,0.199987 z m -0.784448,-0.972033 v 0.821655 h 0.393774 q 0.226343,0 0.341064,-0.10387 0.116272,-0.10542 0.116272,-0.308508 0,-0.203088 -0.116272,-0.305408 -0.114721,-0.103869 -0.341064,-0.103869 z"
             style="font-size:3.175px;fill:#ffffff;stroke-width:0.264583"
             id="path3176" />
          <path
             d="m 70.323697,43.284159 v 0.139526 h -1.311548 q 0.0186,0.294556 0.176733,0.449585 0.159681,0.153479 0.443384,0.153479 0.164331,0 0.31781,-0.04031 0.15503,-0.04031 0.306958,-0.120923 v 0.269751 q -0.153479,0.06511 -0.314709,0.09922 -0.161231,0.03411 -0.327112,0.03411 -0.415478,0 -0.658874,-0.241846 -0.241846,-0.241845 -0.241846,-0.654223 0,-0.426331 0.229443,-0.675928 0.230994,-0.251148 0.621668,-0.251148 0.350366,0 0.553454,0.226343 0.204639,0.224793 0.204639,0.612366 z m -0.285254,-0.08372 q -0.0031,-0.234094 -0.131775,-0.37362 -0.127124,-0.139527 -0.337964,-0.139527 -0.238745,0 -0.382922,0.134876 -0.142627,0.134875 -0.164331,0.379821 z"
             style="font-size:3.175px;fill:#ffffff;stroke-width:0.264583"
             id="path3178" />
          <path
             d="m 71.898794,42.538468 v 0.269751 q -0.120923,-0.06201 -0.251147,-0.09302 -0.130225,-0.03101 -0.269751,-0.03101 -0.21239,0 -0.31936,0.06511 -0.10542,0.06511 -0.10542,0.195337 0,0.09922 0.07596,0.156579 0.07596,0.05581 0.305408,0.106971 l 0.09767,0.0217 q 0.303858,0.06511 0.430982,0.184485 0.128674,0.117822 0.128674,0.330212 0,0.241846 -0.192236,0.382922 -0.190686,0.141077 -0.52555,0.141077 -0.139526,0 -0.291455,-0.0279 -0.150378,-0.02636 -0.31781,-0.08062 v -0.294555 q 0.15813,0.08217 0.311609,0.124023 0.153479,0.04031 0.303857,0.04031 0.201539,0 0.310059,-0.06821 0.108521,-0.06976 0.108521,-0.195337 0,-0.116272 -0.07906,-0.178284 -0.07752,-0.06201 -0.342615,-0.119372 l -0.09922,-0.02325 q -0.2651,-0.05581 -0.382922,-0.170532 -0.117822,-0.116272 -0.117822,-0.31781 0,-0.244946 0.173632,-0.378271 0.173633,-0.133326 0.492993,-0.133326 0.15813,0 0.297657,0.02325 0.139526,0.02325 0.257348,0.06976 z"
             style="font-size:3.175px;fill:#ffffff;stroke-width:0.264583"
             id="path3180" />
          <path
             d="m 73.932779,43.284159 v 0.139526 h -1.311548 q 0.0186,0.294556 0.176733,0.449585 0.159681,0.153479 0.443384,0.153479 0.164331,0 0.31781,-0.04031 0.15503,-0.04031 0.306958,-0.120923 v 0.269751 q -0.153479,0.06511 -0.314709,0.09922 -0.161231,0.03411 -0.327112,0.03411 -0.415478,0 -0.658874,-0.241846 -0.241846,-0.241845 -0.241846,-0.654223 0,-0.426331 0.229443,-0.675928 0.230994,-0.251148 0.621668,-0.251148 0.350366,0 0.553454,0.226343 0.204639,0.224793 0.204639,0.612366 z m -0.285254,-0.08372 q -0.0031,-0.234094 -0.131775,-0.37362 -0.127124,-0.139527 -0.337964,-0.139527 -0.238745,0 -0.382922,0.134876 -0.142627,0.134875 -0.164331,0.379821 z"
             style="font-size:3.175px;fill:#ffffff;stroke-width:0.264583"
             id="path3182" />
          <path
             d="m 75.190067,43.350822 q -0.345716,0 -0.479041,0.07906 -0.133325,0.07906 -0.133325,0.26975 0,0.151929 0.09922,0.241846 0.100769,0.08837 0.272851,0.08837 0.237195,0 0.379822,-0.167432 0.144177,-0.168982 0.144177,-0.448034 v -0.06356 z m 0.568957,-0.117823 v 0.990638 H 75.47377 v -0.26355 q -0.09767,0.15813 -0.243396,0.234094 -0.145727,0.07441 -0.356567,0.07441 -0.266651,0 -0.424781,-0.148828 -0.156579,-0.150379 -0.156579,-0.401526 0,-0.293005 0.195337,-0.441833 0.196887,-0.148829 0.586011,-0.148829 h 0.399975 v -0.0279 q 0,-0.196887 -0.130224,-0.303857 -0.128675,-0.108521 -0.362769,-0.108521 -0.148828,0 -0.289905,0.03566 -0.141076,0.03566 -0.271301,0.10697 v -0.26355 q 0.15658,-0.06046 0.303857,-0.08992 0.147278,-0.03101 0.286805,-0.03101 0.376721,0 0.562756,0.195337 0.186035,0.195337 0.186035,0.592212 z"
             style="font-size:3.175px;fill:#ffffff;stroke-width:0.264583"
             id="path3184" />
          <path
             d="m 77.354276,42.753959 q -0.04806,-0.02791 -0.10542,-0.04031 -0.05581,-0.01395 -0.124023,-0.01395 -0.241846,0 -0.372071,0.158129 -0.128674,0.15658 -0.128674,0.451136 v 0.914673 h -0.286804 v -1.736329 h 0.286804 v 0.269751 q 0.08992,-0.158129 0.234094,-0.234094 0.144177,-0.07751 0.350366,-0.07751 0.02946,0 0.06511,0.0047 0.03566,0.0031 0.07906,0.01085 z"
             style="font-size:3.175px;fill:#ffffff;stroke-width:0.264583"
             id="path3186" />
          <path
             d="m 78.837906,42.553971 v 0.26665 q -0.120923,-0.06666 -0.243396,-0.09922 -0.120923,-0.03411 -0.244946,-0.03411 -0.277502,0 -0.430981,0.176734 -0.153479,0.175183 -0.153479,0.492993 0,0.31781 0.153479,0.494543 0.153479,0.175183 0.430981,0.175183 0.124023,0 0.244946,-0.03256 0.122473,-0.03411 0.243396,-0.100769 v 0.26355 q -0.119372,0.05581 -0.248047,0.08372 -0.127124,0.0279 -0.271301,0.0279 -0.392224,0 -0.623218,-0.246497 -0.230993,-0.246496 -0.230993,-0.665075 0,-0.424781 0.232544,-0.668177 0.234094,-0.243396 0.640271,-0.243396 0.131775,0 0.257348,0.02791 0.125574,0.02635 0.243396,0.08061 z"
             style="font-size:3.175px;fill:#ffffff;stroke-width:0.264583"
             id="path3188" />
          <path
             d="m 80.780423,43.175638 v 1.047999 H 80.495169 V 43.18494 q 0,-0.246496 -0.09612,-0.368969 -0.09612,-0.122474 -0.288355,-0.122474 -0.230994,0 -0.364319,0.147278 -0.133325,0.147278 -0.133325,0.401526 v 0.981336 h -0.286804 v -2.412256 h 0.286804 v 0.945678 q 0.102319,-0.156579 0.240295,-0.234094 0.139527,-0.07751 0.320911,-0.07751 0.299207,0 0.452686,0.186036 0.153479,0.184485 0.153479,0.544152 z"
             style="font-size:3.175px;fill:#ffffff;stroke-width:0.264583"
             id="path3190" />
          <path
             d="m 82.837661,43.284159 v 0.139526 h -1.311547 q 0.0186,0.294556 0.176733,0.449585 0.15968,0.153479 0.443384,0.153479 0.164331,0 0.31781,-0.04031 0.155029,-0.04031 0.306958,-0.120923 v 0.269751 q -0.153479,0.06511 -0.31471,0.09922 -0.16123,0.03411 -0.327112,0.03411 -0.415478,0 -0.658874,-0.241846 -0.241846,-0.241845 -0.241846,-0.654223 0,-0.426331 0.229444,-0.675928 0.230993,-0.251148 0.621667,-0.251148 0.350366,0 0.553455,0.226343 0.204638,0.224793 0.204638,0.612366 z m -0.285254,-0.08372 q -0.0031,-0.234094 -0.131774,-0.37362 -0.127124,-0.139527 -0.337964,-0.139527 -0.238745,0 -0.382923,0.134876 -0.142627,0.134875 -0.164331,0.379821 z"
             style="font-size:3.175px;fill:#ffffff;stroke-width:0.264583"
             id="path3192" />
          <path
             d="m 84.31199,42.753959 q -0.04806,-0.02791 -0.10542,-0.04031 -0.05581,-0.01395 -0.124023,-0.01395 -0.241846,0 -0.372071,0.158129 -0.128674,0.15658 -0.128674,0.451136 v 0.914673 h -0.286804 v -1.736329 h 0.286804 v 0.269751 q 0.08992,-0.158129 0.234094,-0.234094 0.144177,-0.07751 0.350366,-0.07751 0.02946,0 0.06511,0.0047 0.03566,0.0031 0.07906,0.01085 z"
             style="font-size:3.175px;fill:#ffffff;stroke-width:0.264583"
             id="path3194" />
          <path
             d="m 85.721206,42.538468 v 0.269751 q -0.120923,-0.06201 -0.251148,-0.09302 -0.130224,-0.03101 -0.269751,-0.03101 -0.21239,0 -0.31936,0.06511 -0.10542,0.06511 -0.10542,0.195337 0,0.09922 0.07596,0.156579 0.07596,0.05581 0.305407,0.106971 l 0.09767,0.0217 q 0.303857,0.06511 0.430981,0.184485 0.128674,0.117822 0.128674,0.330212 0,0.241846 -0.192236,0.382922 -0.190686,0.141077 -0.525549,0.141077 -0.139527,0 -0.291455,-0.0279 -0.150379,-0.02636 -0.31781,-0.08062 v -0.294555 q 0.15813,0.08217 0.311609,0.124023 0.153479,0.04031 0.303857,0.04031 0.201538,0 0.310059,-0.06821 0.10852,-0.06976 0.10852,-0.195337 0,-0.116272 -0.07906,-0.178284 -0.07751,-0.06201 -0.342615,-0.119372 l -0.09922,-0.02325 q -0.2651,-0.05581 -0.382923,-0.170532 -0.117822,-0.116272 -0.117822,-0.31781 0,-0.244946 0.173633,-0.378271 0.173633,-0.133326 0.492993,-0.133326 0.15813,0 0.297656,0.02325 0.139527,0.02325 0.257349,0.06976 z"
             style="font-size:3.175px;fill:#ffffff;stroke-width:0.264583"
             id="path3196" />
          <path
             d="m 67.446353,46.656046 q -0.229443,0 -0.362768,0.179834 -0.133326,0.178284 -0.133326,0.489893 0,0.311609 0.131775,0.491443 0.133325,0.178283 0.364319,0.178283 0.227893,0 0.361218,-0.179834 0.133326,-0.179834 0.133326,-0.489892 0,-0.308509 -0.133326,-0.488343 -0.133325,-0.181384 -0.361218,-0.181384 z m 0,-0.241846 q 0.37207,0 0.584461,0.241846 0.21239,0.241846 0.21239,0.669727 0,0.42633 -0.21239,0.669726 -0.212391,0.241846 -0.584461,0.241846 -0.37362,0 -0.586011,-0.241846 -0.210839,-0.243396 -0.210839,-0.669726 0,-0.427881 0.210839,-0.669727 0.212391,-0.241846 0.586011,-0.241846 z"
             style="font-size:3.175px;fill:#ffffff;stroke-width:0.264583"
             id="path3198" />
          <path
             d="m 70.157815,47.144388 v 1.047998 H 69.872562 V 47.15369 q 0,-0.246496 -0.09612,-0.36897 -0.09612,-0.122473 -0.288354,-0.122473 -0.230994,0 -0.364319,0.147278 -0.133325,0.147278 -0.133325,0.401526 v 0.981335 H 68.70364 v -1.736328 h 0.286804 v 0.269751 q 0.102319,-0.156579 0.240295,-0.234094 0.139527,-0.07751 0.320911,-0.07751 0.299206,0 0.452685,0.186036 0.153479,0.184484 0.153479,0.544152 z"
             style="font-size:3.175px;fill:#ffffff;stroke-width:0.264583"
             id="path3200" />
          <path
             d="m 71.71741,45.877799 h 0.314709 v 1.406116 q 0,0.37207 0.134876,0.536401 0.134875,0.162781 0.437182,0.162781 0.300757,0 0.435633,-0.162781 0.134875,-0.164331 0.134875,-0.536401 v -1.406116 h 0.31471 v 1.444873 q 0,0.452686 -0.224793,0.683679 -0.223242,0.230994 -0.660425,0.230994 -0.438732,0 -0.663525,-0.230994 -0.223242,-0.230993 -0.223242,-0.683679 z"
             style="font-size:3.175px;fill:#ffffff;stroke-width:0.264583"
             id="path3202" />
          <path
             d="m 75.072244,46.722709 q -0.04806,-0.02791 -0.10542,-0.04031 -0.05581,-0.01395 -0.124023,-0.01395 -0.241846,0 -0.372071,0.15813 -0.128674,0.15658 -0.128674,0.451136 v 0.914672 h -0.286804 v -1.736328 h 0.286804 v 0.269751 q 0.08992,-0.15813 0.234094,-0.234094 0.144177,-0.07751 0.350366,-0.07751 0.02946,0 0.06511,0.0047 0.03566,0.0031 0.07906,0.01085 z"
             style="font-size:3.175px;fill:#ffffff;stroke-width:0.264583"
             id="path3204" />
          <path
             d="m 76.620987,47.325773 q 0,-0.31471 -0.130225,-0.492993 -0.128674,-0.179834 -0.355017,-0.179834 -0.226342,0 -0.356567,0.179834 -0.128674,0.178283 -0.128674,0.492993 0,0.314709 0.128674,0.494543 0.130225,0.178284 0.356567,0.178284 0.226343,0 0.355017,-0.178284 0.130225,-0.179834 0.130225,-0.494543 z m -0.970483,-0.606165 q 0.08992,-0.155029 0.226342,-0.229443 0.137977,-0.07596 0.328663,-0.07596 0.316259,0 0.513147,0.251148 0.198437,0.251147 0.198437,0.660425 0,0.409277 -0.198437,0.660424 -0.196888,0.251148 -0.513147,0.251148 -0.190686,0 -0.328663,-0.07441 -0.136425,-0.07596 -0.226342,-0.230994 v 0.260449 H 75.3637 V 45.78014 h 0.286804 z"
             style="font-size:3.175px;fill:#ffffff;stroke-width:0.264583"
             id="path3206" />
          <path
             d="m 78.179032,47.319572 q -0.345716,0 -0.479041,0.07906 -0.133325,0.07906 -0.133325,0.269751 0,0.151929 0.09922,0.241846 0.100769,0.08837 0.272851,0.08837 0.237195,0 0.379822,-0.167432 0.144177,-0.168982 0.144177,-0.448034 v -0.06356 z m 0.568957,-0.117823 v 0.990637 h -0.285254 v -0.263549 q -0.09767,0.15813 -0.243396,0.234094 -0.145727,0.07441 -0.356567,0.07441 -0.266651,0 -0.42478,-0.148828 -0.15658,-0.150379 -0.15658,-0.401526 0,-0.293005 0.195337,-0.441834 0.196887,-0.148828 0.586011,-0.148828 h 0.399975 v -0.0279 q 0,-0.196887 -0.130224,-0.303857 -0.128675,-0.108521 -0.362769,-0.108521 -0.148828,0 -0.289905,0.03566 -0.141076,0.03566 -0.271301,0.10697 v -0.26355 q 0.15658,-0.06046 0.303857,-0.08992 0.147278,-0.03101 0.286805,-0.03101 0.376721,0 0.562756,0.195337 0.186035,0.195337 0.186035,0.592212 z"
             style="font-size:3.175px;fill:#ffffff;stroke-width:0.264583"
             id="path3208" />
          <path
             d="m 80.780423,47.144388 v 1.047998 H 80.495169 V 47.15369 q 0,-0.246496 -0.09612,-0.36897 -0.09612,-0.122473 -0.288355,-0.122473 -0.230994,0 -0.364319,0.147278 -0.133325,0.147278 -0.133325,0.401526 v 0.981335 h -0.286804 v -1.736328 h 0.286804 v 0.269751 q 0.102319,-0.156579 0.240295,-0.234094 0.139527,-0.07751 0.320911,-0.07751 0.299207,0 0.452686,0.186036 0.153479,0.184484 0.153479,0.544152 z"
             style="font-size:3.175px;fill:#ffffff;stroke-width:0.264583"
             id="path3210" />
          <path
             d="m 81.352481,46.456058 h 0.285254 v 1.736328 h -0.285254 z m 0,-0.675927 h 0.285254 v 0.361218 h -0.285254 z"
             style="font-size:3.175px;fill:#ffffff;stroke-width:0.264583"
             id="path3212" />
          <path
             d="m 83.339956,46.507218 v 0.269751 q -0.120922,-0.06201 -0.251147,-0.09302 -0.130225,-0.03101 -0.269751,-0.03101 -0.21239,0 -0.31936,0.06511 -0.10542,0.06511 -0.10542,0.195337 0,0.09922 0.07596,0.156579 0.07596,0.05581 0.305408,0.106971 l 0.09767,0.0217 q 0.303858,0.06511 0.430982,0.184485 0.128674,0.117822 0.128674,0.330212 0,0.241846 -0.192236,0.382922 -0.190686,0.141077 -0.52555,0.141077 -0.139526,0 -0.291455,-0.0279 -0.150378,-0.02636 -0.31781,-0.08062 v -0.294555 q 0.15813,0.08217 0.311609,0.124023 0.153479,0.04031 0.303858,0.04031 0.201538,0 0.310058,-0.06821 0.108521,-0.06976 0.108521,-0.195337 0,-0.116272 -0.07906,-0.178284 -0.07751,-0.06201 -0.342615,-0.119372 l -0.09922,-0.02325 q -0.2651,-0.05581 -0.382922,-0.170532 -0.117822,-0.116272 -0.117822,-0.31781 0,-0.244946 0.173632,-0.378271 0.173633,-0.133326 0.492994,-0.133326 0.158129,0 0.297656,0.02325 0.139526,0.02325 0.257348,0.06976 z"
             style="font-size:3.175px;fill:#ffffff;stroke-width:0.264583"
             id="path3214" />
          <path
             d="m 84.677859,47.319572 q -0.345715,0 -0.47904,0.07906 -0.133325,0.07906 -0.133325,0.269751 0,0.151929 0.09922,0.241846 0.100769,0.08837 0.272851,0.08837 0.237195,0 0.379822,-0.167432 0.144177,-0.168982 0.144177,-0.448034 v -0.06356 z m 0.568958,-0.117823 v 0.990637 h -0.285254 v -0.263549 q -0.09767,0.15813 -0.243396,0.234094 -0.145727,0.07441 -0.356567,0.07441 -0.266651,0 -0.424781,-0.148828 -0.156579,-0.150379 -0.156579,-0.401526 0,-0.293005 0.195337,-0.441834 0.196887,-0.148828 0.586011,-0.148828 h 0.399975 v -0.0279 q 0,-0.196887 -0.130225,-0.303857 -0.128674,-0.108521 -0.362768,-0.108521 -0.148828,0 -0.289905,0.03566 -0.141077,0.03566 -0.271301,0.10697 v -0.26355 q 0.156579,-0.06046 0.303857,-0.08992 0.147278,-0.03101 0.286804,-0.03101 0.376722,0 0.562757,0.195337 0.186035,0.195337 0.186035,0.592212 z"
             style="font-size:3.175px;fill:#ffffff;stroke-width:0.264583"
             id="path3216" />
          <path
             d="m 86.118082,45.963065 v 0.492993 h 0.587561 v 0.221692 h -0.587561 v 0.942578 q 0,0.21239 0.05736,0.272852 0.05891,0.06046 0.237195,0.06046 h 0.293005 v 0.238745 h -0.293005 q -0.330213,0 -0.455786,-0.122473 -0.125574,-0.124023 -0.125574,-0.449585 V 46.67775 h -0.20929 v -0.221692 h 0.20929 v -0.492993 z"
             style="font-size:3.175px;fill:#ffffff;stroke-width:0.264583"
             id="path3218" />
          <path
             d="m 87.082364,46.456058 h 0.285254 v 1.736328 h -0.285254 z m 0,-0.675927 h 0.285254 v 0.361218 h -0.285254 z"
             style="font-size:3.175px;fill:#ffffff;stroke-width:0.264583"
             id="path3220" />
          <path
             d="m 88.635757,46.656046 q -0.229444,0 -0.362769,0.179834 -0.133325,0.178284 -0.133325,0.489893 0,0.311609 0.131775,0.491443 0.133325,0.178283 0.364319,0.178283 0.227893,0 0.361218,-0.179834 0.133325,-0.179834 0.133325,-0.489892 0,-0.308509 -0.133325,-0.488343 -0.133325,-0.181384 -0.361218,-0.181384 z m 0,-0.241846 q 0.37207,0 0.58446,0.241846 0.21239,0.241846 0.21239,0.669727 0,0.42633 -0.21239,0.669726 -0.21239,0.241846 -0.58446,0.241846 -0.373621,0 -0.586011,-0.241846 -0.21084,-0.243396 -0.21084,-0.669726 0,-0.427881 0.21084,-0.669727 0.21239,-0.241846 0.586011,-0.241846 z"
             style="font-size:3.175px;fill:#ffffff;stroke-width:0.264583"
             id="path3222" />
          <path
             d="m 91.34722,47.144388 v 1.047998 H 91.061966 V 47.15369 q 0,-0.246496 -0.09612,-0.36897 -0.09612,-0.122473 -0.288355,-0.122473 -0.230993,0 -0.364319,0.147278 -0.133325,0.147278 -0.133325,0.401526 v 0.981335 h -0.286804 v -1.736328 h 0.286804 v 0.269751 q 0.10232,-0.156579 0.240296,-0.234094 0.139526,-0.07751 0.32091,-0.07751 0.299207,0 0.452686,0.186036 0.153479,0.184484 0.153479,0.544152 z"
             style="font-size:3.175px;fill:#ffffff;stroke-width:0.264583"
             id="path3224" />
          <path
             d="m 66.773526,50.424808 h 0.285254 v 1.736328 h -0.285254 z m 0,-0.675927 h 0.285254 v 0.361218 h -0.285254 z"
             style="font-size:3.175px;fill:#ffffff;stroke-width:0.264583"
             id="path3226" />
          <path
             d="m 69.097415,51.113138 v 1.047998 H 68.812161 V 51.12244 q 0,-0.246496 -0.09612,-0.36897 -0.09612,-0.122473 -0.288354,-0.122473 -0.230994,0 -0.364319,0.147278 -0.133325,0.147278 -0.133325,0.401526 v 0.981335 H 67.64324 v -1.736328 h 0.286805 v 0.269751 q 0.102319,-0.156579 0.240295,-0.234094 0.139526,-0.07751 0.320911,-0.07751 0.299206,0 0.452685,0.186036 0.153479,0.184484 0.153479,0.544152 z"
             style="font-size:3.175px;fill:#ffffff;stroke-width:0.264583"
             id="path3228" />
          <path
             d="m 70.962418,49.931815 v 0.492993 h 0.587561 V 50.6465 h -0.587561 v 0.942578 q 0,0.21239 0.05736,0.272852 0.05891,0.06046 0.237195,0.06046 h 0.293006 v 0.238745 h -0.293006 q -0.330212,0 -0.455786,-0.122473 -0.125574,-0.124023 -0.125574,-0.449585 V 50.6465 h -0.209289 v -0.221692 h 0.209289 v -0.492993 z"
             style="font-size:3.175px;fill:#ffffff;stroke-width:0.264583"
             id="path3230" />
          <path
             d="m 73.370023,51.113138 v 1.047998 H 73.084769 V 51.12244 q 0,-0.246496 -0.09612,-0.36897 -0.09612,-0.122473 -0.288355,-0.122473 -0.230994,0 -0.364319,0.147278 -0.133325,0.147278 -0.133325,0.401526 v 0.981335 h -0.286804 v -2.412255 h 0.286804 v 0.945678 q 0.102319,-0.156579 0.240295,-0.234094 0.139527,-0.07751 0.320911,-0.07751 0.299207,0 0.452686,0.186036 0.153479,0.184484 0.153479,0.544152 z"
             style="font-size:3.175px;fill:#ffffff;stroke-width:0.264583"
             id="path3232" />
          <path
             d="m 75.427261,51.221659 v 0.139526 h -1.311547 q 0.0186,0.294556 0.176733,0.449585 0.15968,0.153479 0.443384,0.153479 0.164331,0 0.31781,-0.04031 0.155029,-0.04031 0.306958,-0.120923 v 0.269751 q -0.153479,0.06511 -0.31471,0.09922 -0.16123,0.03411 -0.327111,0.03411 -0.415479,0 -0.658875,-0.241846 -0.241846,-0.241846 -0.241846,-0.654223 0,-0.426331 0.229444,-0.675928 0.230993,-0.251148 0.621667,-0.251148 0.350366,0 0.553455,0.226343 0.204638,0.224793 0.204638,0.612366 z m -0.285253,-0.08372 q -0.0031,-0.234094 -0.131775,-0.373621 -0.127124,-0.139526 -0.337964,-0.139526 -0.238745,0 -0.382923,0.134876 -0.142627,0.134875 -0.164331,0.379821 z"
             style="font-size:3.175px;fill:#ffffff;stroke-width:0.264583"
             id="path3234" />
          <path
             d="m 78.306155,49.922513 v 0.305408 q -0.178284,-0.08527 -0.336414,-0.127124 -0.15813,-0.04186 -0.305407,-0.04186 -0.255799,0 -0.395325,0.09922 -0.137976,0.09922 -0.137976,0.282153 0,0.153479 0.09147,0.232544 0.09302,0.07751 0.350366,0.125574 l 0.189136,0.03876 q 0.350366,0.06666 0.516248,0.235645 0.167431,0.167431 0.167431,0.449585 0,0.336413 -0.226343,0.510046 -0.224792,0.173633 -0.660424,0.173633 -0.164331,0 -0.350367,-0.03721 -0.184484,-0.03721 -0.382922,-0.110071 v -0.322461 q 0.190686,0.10697 0.373621,0.161231 0.182934,0.05426 0.359668,0.05426 0.2682,0 0.413928,-0.10542 0.145727,-0.10542 0.145727,-0.300757 0,-0.170532 -0.10542,-0.26665 -0.103869,-0.09612 -0.342614,-0.144178 l -0.190686,-0.03721 q -0.350367,-0.06976 -0.506946,-0.218591 -0.15658,-0.148828 -0.15658,-0.413928 0,-0.306958 0.215491,-0.483691 0.217041,-0.176734 0.596863,-0.176734 0.162781,0 0.331762,0.02946 0.168982,0.02945 0.345716,0.08837 z"
             style="font-size:3.175px;fill:#ffffff;stroke-width:0.264583"
             id="path3236" />
          <path
             d="m 79.594448,50.624796 q -0.229443,0 -0.362768,0.179834 -0.133325,0.178284 -0.133325,0.489893 0,0.311609 0.131774,0.491442 0.133326,0.178284 0.364319,0.178284 0.227893,0 0.361219,-0.179834 0.133325,-0.179834 0.133325,-0.489892 0,-0.308509 -0.133325,-0.488343 -0.133326,-0.181384 -0.361219,-0.181384 z m 0,-0.241846 q 0.372071,0 0.584461,0.241846 0.21239,0.241846 0.21239,0.669727 0,0.42633 -0.21239,0.669726 -0.21239,0.241846 -0.584461,0.241846 -0.37362,0 -0.58601,-0.241846 -0.21084,-0.243396 -0.21084,-0.669726 0,-0.427881 0.21084,-0.669727 0.21239,-0.241846 0.58601,-0.241846 z"
             style="font-size:3.175px;fill:#ffffff;stroke-width:0.264583"
             id="path3238" />
          <path
             d="m 80.833133,51.475907 v -1.051099 h 0.285254 v 1.040247 q 0,0.246496 0.09612,0.37052 0.09612,0.122473 0.288355,0.122473 0.230993,0 0.364319,-0.147278 0.134875,-0.147278 0.134875,-0.401526 v -0.984436 h 0.285254 v 1.736328 h -0.285254 v -0.26665 q -0.10387,0.15813 -0.241846,0.235645 -0.136425,0.07596 -0.31781,0.07596 -0.299206,0 -0.454236,-0.186035 -0.155029,-0.186035 -0.155029,-0.544153 z m 0.717786,-1.092957 z"
             style="font-size:3.175px;fill:#ffffff;stroke-width:0.264583"
             id="path3240" />
          <path
             d="m 83.160122,49.931815 v 0.492993 h 0.587561 V 50.6465 h -0.587561 v 0.942578 q 0,0.21239 0.05736,0.272852 0.05891,0.06046 0.237195,0.06046 h 0.293005 v 0.238745 h -0.293005 q -0.330213,0 -0.455787,-0.122473 -0.125573,-0.124023 -0.125573,-0.449585 V 50.6465 h -0.20929 v -0.221692 h 0.20929 v -0.492993 z"
             style="font-size:3.175px;fill:#ffffff;stroke-width:0.264583"
             id="path3242" />
          <path
             d="m 85.567726,51.113138 v 1.047998 H 85.282473 V 51.12244 q 0,-0.246496 -0.09612,-0.36897 -0.09612,-0.122473 -0.288354,-0.122473 -0.230994,0 -0.364319,0.147278 -0.133325,0.147278 -0.133325,0.401526 v 0.981335 h -0.286804 v -2.412255 h 0.286804 v 0.945678 q 0.102319,-0.156579 0.240295,-0.234094 0.139527,-0.07751 0.320911,-0.07751 0.299206,0 0.452685,0.186036 0.153479,0.184484 0.153479,0.544152 z"
             style="font-size:3.175px;fill:#ffffff;stroke-width:0.264583"
             id="path3244" />
        </g>
        <path
           d="m 159.1617,-26.022812 v 0.56431 h -1.3553 v -0.56431 z"
           style="font-style:normal;font-variant:normal;font-weight:bold;font-stretch:normal;font-size:4.93889px;line-height:1.15;font-family:Roboto;-inkscape-font-specification:'Roboto Bold';letter-spacing:1.51077px;word-spacing:0px;fill:#ffffff;fill-opacity:1;stroke:none;stroke-width:0.115792"
           id="path3247" />
        <path
           d="m 156.98235,-18.556112 1.30707,-3.51125 h 0.67042 l 1.3143,3.51125 h -0.7717 l -0.24116,-0.72348 h -1.27089 l -0.24116,0.72348 z m 1.20337,-1.30949 h 0.88023 l -0.43891,-1.31912 z"
           style="font-style:normal;font-variant:normal;font-weight:bold;font-stretch:normal;font-size:4.93889px;line-height:1.15;font-family:Roboto;-inkscape-font-specification:'Roboto Bold';letter-spacing:1.51077px;word-spacing:0px;fill:#ffffff;fill-opacity:1;stroke:none;stroke-width:0.115792"
           id="path3249" />
        <path
           d="m 157.27656,-12.876392 v -3.51124 h 2.34887 v 0.58601 h -1.62299 v 0.83681 h 1.38666 v 0.56672 h -1.38666 v 0.9381 h 1.63022 v 0.5836 z"
           style="font-style:normal;font-variant:normal;font-weight:bold;font-stretch:normal;font-size:4.93889px;line-height:1.15;font-family:Roboto;-inkscape-font-specification:'Roboto Bold';letter-spacing:1.51077px;word-spacing:0px;fill:#ffffff;fill-opacity:1;stroke:none;stroke-width:0.115792"
           id="path3251" />
        <path
           d="m 159.23476,-7.1966722 -0.65595,-1.28778 h -0.57637 v 1.28778 h -0.72588 v -3.5112398 h 1.30707 q 0.60531,0 0.95016,0.27251 0.34727,0.27009 0.34727,0.7885798 0,0.38103 -0.16881,0.61495 -0.16881,0.23392 -0.4582,0.36415 l 0.75964,1.43729 v 0.0338 z m -1.23232,-2.9252298 v 1.0538598 h 0.58119 q 0.28457,0 0.42685,-0.14229 0.14469,-0.14469 0.14469,-0.38102 0,-0.24357 -0.13987,-0.38586 -0.13987,-0.1446898 -0.43167,-0.1446898 z"
           style="font-style:normal;font-variant:normal;font-weight:bold;font-stretch:normal;font-size:4.93889px;line-height:1.15;font-family:Roboto;-inkscape-font-specification:'Roboto Bold';letter-spacing:1.51077px;word-spacing:0px;fill:#ffffff;fill-opacity:1;stroke:none;stroke-width:0.115792"
           id="path3253" />
        <path
           d="m 159.21064,-5.0281922 h 0.72588 v 2.3151101 q 0,0.61254 -0.38103,0.92845 -0.38102,0.31592 -0.96462,0.31592 -0.59084,0 -0.96945,-0.31592 -0.37862,-0.31591 -0.37862,-0.92845 v -2.3151101 h 0.72588 v 2.3151101 q 0,0.34726 0.16399,0.50402 0.1664,0.15675 0.4582,0.15675 0.6053,0 0.61977,-0.62942 z"
           style="font-style:normal;font-variant:normal;font-weight:bold;font-stretch:normal;font-size:4.93889px;line-height:1.15;font-family:Roboto;-inkscape-font-specification:'Roboto Bold';letter-spacing:1.51077px;word-spacing:0px;fill:#ffffff;fill-opacity:1;stroke:none;stroke-width:0.115792"
           id="path3255" />
        <path
           d="m 159.09971,3.2415579 q 0,-0.17604 -0.12058,-0.2918 -0.12058,-0.11817 -0.58601,-0.26768 -0.46302,-0.15193 -0.80064,-0.39068 -0.3545,-0.24839 -0.3545,-0.70659 0,-0.44131 0.36414,-0.71140999 0.36415,-0.27009 0.93328,-0.27009 0.5836,0 0.93569,0.30626 0.35209,0.30385999 0.35209,0.77652999 h -0.72347 q 0,-0.22187 -0.14228,-0.36415 -0.14229,-0.14228 -0.43409,-0.14228 -0.28456,0 -0.42443,0.12058 -0.13746,0.11816 -0.13746,0.28697 0,0.17364 0.17845,0.28939 0.17846,0.11576 0.51849,0.21946 0.57637,0.17604 0.87058,0.44131 0.29662,0.26527 0.29662,0.69936 0,0.46061 -0.34727,0.71864 -0.34726,0.25563 -0.92604,0.25563 -0.34968,0 -0.67524,-0.12299 -0.32556,-0.12299 -0.53536,-0.37862 -0.20981,-0.25562 -0.20981,-0.65353 h 0.72588 q 0,0.32074 0.19051,0.45096 0.19293,0.13023 0.50402,0.13023 0.27974,0 0.41238,-0.11335 0.13505,-0.11334 0.13505,-0.28215 z"
           style="font-style:normal;font-variant:normal;font-weight:bold;font-stretch:normal;font-size:4.93889px;line-height:1.15;font-family:Roboto;-inkscape-font-specification:'Roboto Bold';letter-spacing:1.51077px;word-spacing:0px;fill:#ffffff;fill-opacity:1;stroke:none;stroke-width:0.115792"
           id="path3257" />
        <g
           aria-label="U S"
           transform="translate(98.69099,188.99488)"
           id="text860-7-7-2-1-0-0-1-1-1-9"
           style="font-style:normal;font-variant:normal;font-weight:normal;font-stretch:normal;font-size:4.63169px;line-height:1.23;font-family:Roboto;-inkscape-font-specification:Roboto;letter-spacing:1.51139px;word-spacing:0px;fill:#ffffff;fill-opacity:1;stroke:none;stroke-width:0.115792">
          <path
             d="m 98.54786,-205.40893 h 0.680731 v 2.1711 q 0,0.57444 -0.357327,0.87071 -0.357328,0.29626 -0.904627,0.29626 -0.554084,0 -0.90915,-0.29626 -0.355066,-0.29627 -0.355066,-0.87071 v -2.1711 h 0.680731 v 2.1711 q 0,0.32567 0.153787,0.47267 0.156048,0.147 0.429698,0.147 0.567653,0 0.581223,-0.59027 z"
             style="font-style:normal;font-variant:normal;font-weight:bold;font-stretch:normal;line-height:1.23;font-family:Roboto;-inkscape-font-specification:'Roboto Bold';letter-spacing:1.51139px;fill:#ffffff;stroke-width:0.115792"
             id="path3260" />
          <path
             d="m 98.443827,-197.28303 q 0,-0.16509 -0.113078,-0.27365 -0.113078,-0.11082 -0.549561,-0.25103 -0.434221,-0.14248 -0.75084,-0.36638 -0.332451,-0.23294 -0.332451,-0.66264 0,-0.41386 0.341497,-0.66716 0.341497,-0.25329 0.875227,-0.25329 0.547299,0 0.877488,0.28722 0.330189,0.28495 0.330189,0.72822 h -0.678471 q 0,-0.20806 -0.133432,-0.3415 -0.133433,-0.13343 -0.407082,-0.13343 -0.266865,0 -0.398036,0.11308 -0.128909,0.11082 -0.128909,0.26913 0,0.16283 0.167356,0.27138 0.167356,0.10856 0.486237,0.20581 0.540514,0.16509 0.816425,0.41386 0.278173,0.24878 0.278173,0.65586 0,0.43196 -0.325665,0.67395 -0.325666,0.23972 -0.868442,0.23972 -0.327928,0 -0.633239,-0.11534 -0.305312,-0.11534 -0.502068,-0.35506 -0.196757,-0.23973 -0.196757,-0.61289 h 0.680732 q 0,0.30079 0.178664,0.42291 0.180925,0.12213 0.472668,0.12213 0.262341,0 0.386728,-0.1063 0.126647,-0.10629 0.126647,-0.2646 z"
             style="font-style:normal;font-variant:normal;font-weight:bold;font-stretch:normal;line-height:1.23;font-family:Roboto;-inkscape-font-specification:'Roboto Bold';letter-spacing:1.51139px;fill:#ffffff;stroke-width:0.115792"
             id="path3262" />
        </g>
        <g
           aria-label="A "
           transform="translate(98.69099,188.99488)"
           id="text860-7-7-2-1-0-1-9-1-0-7"
           style="font-style:normal;font-variant:normal;font-weight:normal;font-stretch:normal;font-size:4.63169px;line-height:1.23;font-family:Roboto;-inkscape-font-specification:Roboto;letter-spacing:1.51139px;word-spacing:0px;fill:#ffffff;fill-opacity:1;stroke:none;stroke-width:0.115792">
          <path
             d="m 96.369975,-219.4015 1.22577,-3.29285 h 0.628716 l 1.232554,3.29285 h -0.723702 l -0.226156,-0.67847 h -1.191846 l -0.226157,0.67847 z m 1.128523,-1.22804 h 0.825472 l -0.411606,-1.23707 z"
             style="font-style:normal;font-variant:normal;font-weight:bold;font-stretch:normal;line-height:1.23;font-family:Roboto;-inkscape-font-specification:'Roboto Bold';letter-spacing:1.51139px;fill:#ffffff;stroke-width:0.115792"
             id="path3265" />
        </g>
        <g
           transform="matrix(0.98488352,0,0,1.0153485,98.69099,188.99488)"
           style="fill:#ffffff"
           id="g1251-30-0-2-62">
          <g
             aria-label="AERUS"
             transform="scale(1.0145573,0.98565158)"
             id="text860-4-4-6-6"
             style="font-style:normal;font-variant:normal;font-weight:normal;font-stretch:normal;font-size:4.77124px;line-height:1.25;font-family:Roboto;-inkscape-font-specification:Roboto;letter-spacing:0px;word-spacing:0px;fill:#ffffff;fill-opacity:1;stroke:none;stroke-width:0.119281">
            <path
               d="m 65.959365,-219.1362 1.262701,-3.39205 h 0.647659 l 1.26969,3.39205 h -0.745506 l -0.232971,-0.69891 h -1.227756 l -0.23297,0.69891 z m 1.162524,-1.26503 h 0.850343 l -0.424007,-1.27435 z"
               style="font-style:normal;font-variant:normal;font-weight:bold;font-stretch:normal;font-family:Roboto;-inkscape-font-specification:'Roboto Bold';letter-spacing:1.55692px;fill:#ffffff;stroke-width:0.119281"
               id="path3268" />
            <path
               d="m 71.015505,-219.1362 v -3.39205 h 2.269135 v 0.56612 h -1.567893 v 0.8084 h 1.339582 v 0.54748 h -1.339582 v 0.90626 h 1.574882 v 0.56379 z"
               style="font-style:normal;font-variant:normal;font-weight:bold;font-stretch:normal;font-family:Roboto;-inkscape-font-specification:'Roboto Bold';letter-spacing:1.55692px;fill:#ffffff;stroke-width:0.119281"
               id="path3270" />
            <path
               d="m 77.14797,-219.1362 -0.63368,-1.24406 h -0.5568 v 1.24406 h -0.701242 v -3.39205 h 1.262702 q 0.584756,0 0.917904,0.26325 0.335478,0.26093 0.335478,0.76182 0,0.36809 -0.16308,0.59407 -0.163079,0.22598 -0.442644,0.35179 l 0.733858,1.3885 v 0.0326 z m -1.19048,-2.82593 v 1.01808 h 0.56146 q 0.274905,0 0.412358,-0.13746 0.139782,-0.13978 0.139782,-0.36809 0,-0.2353 -0.135123,-0.37275 -0.135123,-0.13978 -0.417017,-0.13978 z"
               style="font-style:normal;font-variant:normal;font-weight:bold;font-stretch:normal;font-family:Roboto;-inkscape-font-specification:'Roboto Bold';letter-spacing:1.55692px;fill:#ffffff;stroke-width:0.119281"
               id="path3272" />
            <path
               d="m 81.72885,-222.52825 h 0.701242 v 2.23652 q 0,0.59174 -0.368094,0.89693 -0.368094,0.30519 -0.931883,0.30519 -0.570778,0 -0.936542,-0.30519 -0.365764,-0.30519 -0.365764,-0.89693 v -2.23652 h 0.701242 v 2.23652 q 0,0.33547 0.15842,0.4869 0.16075,0.15144 0.442644,0.15144 0.584757,0 0.598735,-0.60806 z"
               style="font-style:normal;font-variant:normal;font-weight:bold;font-stretch:normal;font-family:Roboto;-inkscape-font-specification:'Roboto Bold';letter-spacing:1.55692px;fill:#ffffff;stroke-width:0.119281"
               id="path3274" />
            <path
               d="m 86.319049,-220.02615 q 0,-0.17007 -0.116485,-0.28189 -0.116486,-0.11416 -0.566119,-0.2586 -0.447304,-0.14677 -0.773463,-0.37741 -0.342467,-0.23996 -0.342467,-0.68261 0,-0.42633 0.351786,-0.68726 0.351786,-0.26093 0.901597,-0.26093 0.563789,0 0.903926,0.29588 0.340137,0.29354 0.340137,0.75016 h -0.698912 q 0,-0.21433 -0.137453,-0.35178 -0.137452,-0.13746 -0.419347,-0.13746 -0.274905,0 -0.410028,0.11649 -0.132794,0.11415 -0.132794,0.27723 0,0.16774 0.172399,0.27957 0.172398,0.11182 0.500887,0.212 0.5568,0.17007 0.841024,0.42634 0.286554,0.25627 0.286554,0.67561 0,0.44498 -0.335478,0.69426 -0.335478,0.24694 -0.894607,0.24694 -0.337808,0 -0.652318,-0.11881 -0.314511,-0.11882 -0.517195,-0.36576 -0.202685,-0.24695 -0.202685,-0.63136 h 0.701242 q 0,0.30986 0.184047,0.43566 0.186376,0.1258 0.486909,0.1258 0.270246,0 0.39838,-0.10949 0.130463,-0.1095 0.130463,-0.27258 z"
               style="font-style:normal;font-variant:normal;font-weight:bold;font-stretch:normal;font-family:Roboto;-inkscape-font-specification:'Roboto Bold';letter-spacing:1.55692px;fill:#ffffff;stroke-width:0.119281"
               id="path3276" />
          </g>
          <g
             aria-label="- "
             transform="scale(1.0153485,0.98488352)"
             id="text860-7-7-2-1-0-4-4-0-8-8"
             style="font-style:normal;font-variant:normal;font-weight:normal;font-stretch:normal;font-size:4.63169px;line-height:1.23;font-family:Roboto;-inkscape-font-specification:Roboto;letter-spacing:1.51139px;word-spacing:0px;fill:#ffffff;fill-opacity:1;stroke:none;stroke-width:0.115792">
            <path
               d="m 64.624616,-220.68766 v 0.5292 h -1.271001 v -0.5292 z"
               style="font-style:normal;font-variant:normal;font-weight:bold;font-stretch:normal;line-height:1.23;font-family:Roboto;-inkscape-font-specification:'Roboto Bold';letter-spacing:1.51139px;fill:#ffffff;stroke-width:0.115792"
               id="path3279" />
          </g>
          <g
             aria-label="N "
             transform="scale(1.0153485,0.98488352)"
             id="text860-7-7-2-1-0-3-6-9-2-2"
             style="font-style:normal;font-variant:normal;font-weight:normal;font-stretch:normal;font-size:4.63169px;line-height:1.17;font-family:Roboto;-inkscape-font-specification:Roboto;letter-spacing:1.51077px;word-spacing:0px;fill:#ffffff;fill-opacity:1;stroke:none;stroke-width:0.115792">
            <path
               d="m 61.414951,-222.77169 v 3.51124 h -0.72347 l -1.408355,-2.3127 v 2.3127 h -0.725882 v -3.51124 h 0.725882 l 1.408355,2.3151 v -2.3151 z"
               style="font-style:normal;font-variant:normal;font-weight:bold;font-stretch:normal;font-size:4.93889px;line-height:1.17;font-family:Roboto;-inkscape-font-specification:'Roboto Bold';letter-spacing:1.51077px;fill:#ffffff;stroke-width:0.115792"
               id="path3282" />
          </g>
        </g>
        <g
           style="fill:#ffffff"
           transform="matrix(0.98488352,0,0,1.0153485,124.49227,194.72801)"
           id="g1251-3-7-0-3-3">
          <g
             aria-label="AERUS"
             transform="scale(1.0145573,0.98565158)"
             id="text860-0-5-4-7-7"
             style="font-style:normal;font-variant:normal;font-weight:normal;font-stretch:normal;font-size:4.77124px;line-height:1.25;font-family:Roboto;-inkscape-font-specification:Roboto;letter-spacing:0px;word-spacing:0px;fill:#ffffff;fill-opacity:1;stroke:none;stroke-width:0.119281">
            <path
               d="m 65.959365,-219.1362 1.262701,-3.39205 h 0.647659 l 1.26969,3.39205 h -0.745506 l -0.232971,-0.69891 h -1.227756 l -0.23297,0.69891 z m 1.162524,-1.26503 h 0.850343 l -0.424007,-1.27435 z"
               style="font-style:normal;font-variant:normal;font-weight:bold;font-stretch:normal;font-family:Roboto;-inkscape-font-specification:'Roboto Bold';letter-spacing:1.55692px;fill:#ffffff;stroke-width:0.119281"
               id="path3285" />
            <path
               d="m 71.015505,-219.1362 v -3.39205 h 2.269135 v 0.56612 h -1.567893 v 0.8084 h 1.339582 v 0.54748 h -1.339582 v 0.90626 h 1.574882 v 0.56379 z"
               style="font-style:normal;font-variant:normal;font-weight:bold;font-stretch:normal;font-family:Roboto;-inkscape-font-specification:'Roboto Bold';letter-spacing:1.55692px;fill:#ffffff;stroke-width:0.119281"
               id="path3287" />
            <path
               d="m 77.14797,-219.1362 -0.63368,-1.24406 h -0.5568 v 1.24406 h -0.701242 v -3.39205 h 1.262702 q 0.584756,0 0.917904,0.26325 0.335478,0.26093 0.335478,0.76182 0,0.36809 -0.16308,0.59407 -0.163079,0.22598 -0.442644,0.35179 l 0.733858,1.3885 v 0.0326 z m -1.19048,-2.82593 v 1.01808 h 0.56146 q 0.274905,0 0.412358,-0.13746 0.139782,-0.13978 0.139782,-0.36809 0,-0.2353 -0.135123,-0.37275 -0.135123,-0.13978 -0.417017,-0.13978 z"
               style="font-style:normal;font-variant:normal;font-weight:bold;font-stretch:normal;font-family:Roboto;-inkscape-font-specification:'Roboto Bold';letter-spacing:1.55692px;fill:#ffffff;stroke-width:0.119281"
               id="path3289" />
            <path
               d="m 81.72885,-222.52825 h 0.701242 v 2.23652 q 0,0.59174 -0.368094,0.89693 -0.368094,0.30519 -0.931883,0.30519 -0.570778,0 -0.936542,-0.30519 -0.365764,-0.30519 -0.365764,-0.89693 v -2.23652 h 0.701242 v 2.23652 q 0,0.33547 0.15842,0.4869 0.16075,0.15144 0.442644,0.15144 0.584757,0 0.598735,-0.60806 z"
               style="font-style:normal;font-variant:normal;font-weight:bold;font-stretch:normal;font-family:Roboto;-inkscape-font-specification:'Roboto Bold';letter-spacing:1.55692px;fill:#ffffff;stroke-width:0.119281"
               id="path3291" />
            <path
               d="m 86.319049,-220.02615 q 0,-0.17007 -0.116485,-0.28189 -0.116486,-0.11416 -0.566119,-0.2586 -0.447304,-0.14677 -0.773463,-0.37741 -0.342467,-0.23996 -0.342467,-0.68261 0,-0.42633 0.351786,-0.68726 0.351786,-0.26093 0.901597,-0.26093 0.563789,0 0.903926,0.29588 0.340137,0.29354 0.340137,0.75016 h -0.698912 q 0,-0.21433 -0.137453,-0.35178 -0.137452,-0.13746 -0.419347,-0.13746 -0.274905,0 -0.410028,0.11649 -0.132794,0.11415 -0.132794,0.27723 0,0.16774 0.172399,0.27957 0.172398,0.11182 0.500887,0.212 0.5568,0.17007 0.841024,0.42634 0.286554,0.25627 0.286554,0.67561 0,0.44498 -0.335478,0.69426 -0.335478,0.24694 -0.894607,0.24694 -0.337808,0 -0.652318,-0.11881 -0.314511,-0.11882 -0.517195,-0.36576 -0.202685,-0.24695 -0.202685,-0.63136 h 0.701242 q 0,0.30986 0.184047,0.43566 0.186376,0.1258 0.486909,0.1258 0.270246,0 0.39838,-0.10949 0.130463,-0.1095 0.130463,-0.27258 z"
               style="font-style:normal;font-variant:normal;font-weight:bold;font-stretch:normal;font-family:Roboto;-inkscape-font-specification:'Roboto Bold';letter-spacing:1.55692px;fill:#ffffff;stroke-width:0.119281"
               id="path3293" />
          </g>
          <g
             aria-label="- "
             transform="scale(1.0153485,0.98488352)"
             id="text860-7-7-2-1-0-4-1-6-2-9-9"
             style="font-style:normal;font-variant:normal;font-weight:normal;font-stretch:normal;font-size:4.63169px;line-height:1.23;font-family:Roboto;-inkscape-font-specification:Roboto;letter-spacing:1.51139px;word-spacing:0px;fill:#ffffff;fill-opacity:1;stroke:none;stroke-width:0.115792">
            <path
               d="m 64.624616,-220.68766 v 0.5292 h -1.271001 v -0.5292 z"
               style="font-style:normal;font-variant:normal;font-weight:bold;font-stretch:normal;line-height:1.23;font-family:Roboto;-inkscape-font-specification:'Roboto Bold';letter-spacing:1.51139px;fill:#ffffff;stroke-width:0.115792"
               id="path3296" />
          </g>
          <g
             aria-label="N "
             transform="scale(1.0153485,0.98488352)"
             id="text860-7-7-2-1-0-3-5-85-5-8-8"
             style="font-style:normal;font-variant:normal;font-weight:normal;font-stretch:normal;font-size:4.63169px;line-height:1.17;font-family:Roboto;-inkscape-font-specification:Roboto;letter-spacing:1.51077px;word-spacing:0px;fill:#ffffff;fill-opacity:1;stroke:none;stroke-width:0.115792">
            <path
               d="m 61.414951,-222.77169 v 3.51124 h -0.72347 l -1.408355,-2.3127 v 2.3127 h -0.725882 v -3.51124 h 0.725882 l 1.408355,2.3151 v -2.3151 z"
               style="font-style:normal;font-variant:normal;font-weight:bold;font-stretch:normal;font-size:4.93889px;line-height:1.17;font-family:Roboto;-inkscape-font-specification:'Roboto Bold';letter-spacing:1.51077px;fill:#ffffff;stroke-width:0.115792"
               id="path3299" />
          </g>
        </g>
        <g
           style="fill:#ffffff"
           transform="matrix(0.98488352,0,0,1.0153485,120.24117,200.57416)"
           id="g1251-3-4-1-9-3-3">
          <g
             aria-label="AERUS"
             transform="scale(1.0145573,0.98565158)"
             id="text860-0-6-8-0-6-61"
             style="font-style:normal;font-variant:normal;font-weight:normal;font-stretch:normal;font-size:4.77124px;line-height:1.25;font-family:Roboto;-inkscape-font-specification:Roboto;letter-spacing:0px;word-spacing:0px;fill:#ffffff;fill-opacity:1;stroke:none;stroke-width:0.119281">
            <path
               d="m 65.959365,-219.1362 1.262701,-3.39205 h 0.647659 l 1.26969,3.39205 h -0.745506 l -0.232971,-0.69891 h -1.227756 l -0.23297,0.69891 z m 1.162524,-1.26503 h 0.850343 l -0.424007,-1.27435 z"
               style="font-style:normal;font-variant:normal;font-weight:bold;font-stretch:normal;font-family:Roboto;-inkscape-font-specification:'Roboto Bold';letter-spacing:1.55692px;fill:#ffffff;stroke-width:0.119281"
               id="path3302" />
            <path
               d="m 71.015505,-219.1362 v -3.39205 h 2.269135 v 0.56612 h -1.567893 v 0.8084 h 1.339582 v 0.54748 h -1.339582 v 0.90626 h 1.574882 v 0.56379 z"
               style="font-style:normal;font-variant:normal;font-weight:bold;font-stretch:normal;font-family:Roboto;-inkscape-font-specification:'Roboto Bold';letter-spacing:1.55692px;fill:#ffffff;stroke-width:0.119281"
               id="path3304" />
            <path
               d="m 77.14797,-219.1362 -0.63368,-1.24406 h -0.5568 v 1.24406 h -0.701242 v -3.39205 h 1.262702 q 0.584756,0 0.917904,0.26325 0.335478,0.26093 0.335478,0.76182 0,0.36809 -0.16308,0.59407 -0.163079,0.22598 -0.442644,0.35179 l 0.733858,1.3885 v 0.0326 z m -1.19048,-2.82593 v 1.01808 h 0.56146 q 0.274905,0 0.412358,-0.13746 0.139782,-0.13978 0.139782,-0.36809 0,-0.2353 -0.135123,-0.37275 -0.135123,-0.13978 -0.417017,-0.13978 z"
               style="font-style:normal;font-variant:normal;font-weight:bold;font-stretch:normal;font-family:Roboto;-inkscape-font-specification:'Roboto Bold';letter-spacing:1.55692px;fill:#ffffff;stroke-width:0.119281"
               id="path3306" />
            <path
               d="m 81.72885,-222.52825 h 0.701242 v 2.23652 q 0,0.59174 -0.368094,0.89693 -0.368094,0.30519 -0.931883,0.30519 -0.570778,0 -0.936542,-0.30519 -0.365764,-0.30519 -0.365764,-0.89693 v -2.23652 h 0.701242 v 2.23652 q 0,0.33547 0.15842,0.4869 0.16075,0.15144 0.442644,0.15144 0.584757,0 0.598735,-0.60806 z"
               style="font-style:normal;font-variant:normal;font-weight:bold;font-stretch:normal;font-family:Roboto;-inkscape-font-specification:'Roboto Bold';letter-spacing:1.55692px;fill:#ffffff;stroke-width:0.119281"
               id="path3308" />
            <path
               d="m 86.319049,-220.02615 q 0,-0.17007 -0.116485,-0.28189 -0.116486,-0.11416 -0.566119,-0.2586 -0.447304,-0.14677 -0.773463,-0.37741 -0.342467,-0.23996 -0.342467,-0.68261 0,-0.42633 0.351786,-0.68726 0.351786,-0.26093 0.901597,-0.26093 0.563789,0 0.903926,0.29588 0.340137,0.29354 0.340137,0.75016 h -0.698912 q 0,-0.21433 -0.137453,-0.35178 -0.137452,-0.13746 -0.419347,-0.13746 -0.274905,0 -0.410028,0.11649 -0.132794,0.11415 -0.132794,0.27723 0,0.16774 0.172399,0.27957 0.172398,0.11182 0.500887,0.212 0.5568,0.17007 0.841024,0.42634 0.286554,0.25627 0.286554,0.67561 0,0.44498 -0.335478,0.69426 -0.335478,0.24694 -0.894607,0.24694 -0.337808,0 -0.652318,-0.11881 -0.314511,-0.11882 -0.517195,-0.36576 -0.202685,-0.24695 -0.202685,-0.63136 h 0.701242 q 0,0.30986 0.184047,0.43566 0.186376,0.1258 0.486909,0.1258 0.270246,0 0.39838,-0.10949 0.130463,-0.1095 0.130463,-0.27258 z"
               style="font-style:normal;font-variant:normal;font-weight:bold;font-stretch:normal;font-family:Roboto;-inkscape-font-specification:'Roboto Bold';letter-spacing:1.55692px;fill:#ffffff;stroke-width:0.119281"
               id="path3310" />
          </g>
          <g
             aria-label="- "
             transform="scale(1.0153485,0.98488352)"
             id="text860-7-7-2-1-0-4-1-0-9-8-2-9"
             style="font-style:normal;font-variant:normal;font-weight:normal;font-stretch:normal;font-size:4.63169px;line-height:1.23;font-family:Roboto;-inkscape-font-specification:Roboto;letter-spacing:1.51139px;word-spacing:0px;fill:#ffffff;fill-opacity:1;stroke:none;stroke-width:0.115792">
            <path
               d="m 64.624616,-220.68766 v 0.5292 h -1.271001 v -0.5292 z"
               style="font-style:normal;font-variant:normal;font-weight:bold;font-stretch:normal;line-height:1.23;font-family:Roboto;-inkscape-font-specification:'Roboto Bold';letter-spacing:1.51139px;fill:#ffffff;stroke-width:0.115792"
               id="path3313" />
          </g>
          <g
             aria-label="N "
             transform="scale(1.0153485,0.98488352)"
             id="text860-7-7-2-1-0-3-5-8-3-0-1-4"
             style="font-style:normal;font-variant:normal;font-weight:normal;font-stretch:normal;font-size:4.63169px;line-height:1.17;font-family:Roboto;-inkscape-font-specification:Roboto;letter-spacing:1.51077px;word-spacing:0px;fill:#ffffff;fill-opacity:1;stroke:none;stroke-width:0.115792">
            <path
               d="m 61.414951,-222.77169 v 3.51124 h -0.72347 l -1.408355,-2.3127 v 2.3127 h -0.725882 v -3.51124 h 0.725882 l 1.408355,2.3151 v -2.3151 z"
               style="font-style:normal;font-variant:normal;font-weight:bold;font-stretch:normal;font-size:4.93889px;line-height:1.17;font-family:Roboto;-inkscape-font-specification:'Roboto Bold';letter-spacing:1.51077px;fill:#ffffff;stroke-width:0.115792"
               id="path3316" />
          </g>
        </g>
        <g
           style="fill:#ffffff"
           transform="matrix(0.98488352,0,0,1.0153485,106.2105,217.68305)"
           id="g1251-6-3-9-7-4">
          <g
             aria-label="AERUS"
             transform="scale(1.0145573,0.98565158)"
             id="text860-08-1-1-8-5"
             style="font-style:normal;font-variant:normal;font-weight:normal;font-stretch:normal;font-size:4.77124px;line-height:1.25;font-family:Roboto;-inkscape-font-specification:Roboto;letter-spacing:0px;word-spacing:0px;fill:#ffffff;fill-opacity:1;stroke:none;stroke-width:0.119281">
            <path
               d="m 65.959365,-219.1362 1.262701,-3.39205 h 0.647659 l 1.26969,3.39205 h -0.745506 l -0.232971,-0.69891 h -1.227756 l -0.23297,0.69891 z m 1.162524,-1.26503 h 0.850343 l -0.424007,-1.27435 z"
               style="font-style:normal;font-variant:normal;font-weight:bold;font-stretch:normal;font-family:Roboto;-inkscape-font-specification:'Roboto Bold';letter-spacing:1.55692px;fill:#ffffff;stroke-width:0.119281"
               id="path3319" />
            <path
               d="m 71.015505,-219.1362 v -3.39205 h 2.269135 v 0.56612 h -1.567893 v 0.8084 h 1.339582 v 0.54748 h -1.339582 v 0.90626 h 1.574882 v 0.56379 z"
               style="font-style:normal;font-variant:normal;font-weight:bold;font-stretch:normal;font-family:Roboto;-inkscape-font-specification:'Roboto Bold';letter-spacing:1.55692px;fill:#ffffff;stroke-width:0.119281"
               id="path3321" />
            <path
               d="m 77.14797,-219.1362 -0.63368,-1.24406 h -0.5568 v 1.24406 h -0.701242 v -3.39205 h 1.262702 q 0.584756,0 0.917904,0.26325 0.335478,0.26093 0.335478,0.76182 0,0.36809 -0.16308,0.59407 -0.163079,0.22598 -0.442644,0.35179 l 0.733858,1.3885 v 0.0326 z m -1.19048,-2.82593 v 1.01808 h 0.56146 q 0.274905,0 0.412358,-0.13746 0.139782,-0.13978 0.139782,-0.36809 0,-0.2353 -0.135123,-0.37275 -0.135123,-0.13978 -0.417017,-0.13978 z"
               style="font-style:normal;font-variant:normal;font-weight:bold;font-stretch:normal;font-family:Roboto;-inkscape-font-specification:'Roboto Bold';letter-spacing:1.55692px;fill:#ffffff;stroke-width:0.119281"
               id="path3323" />
            <path
               d="m 81.72885,-222.52825 h 0.701242 v 2.23652 q 0,0.59174 -0.368094,0.89693 -0.368094,0.30519 -0.931883,0.30519 -0.570778,0 -0.936542,-0.30519 -0.365764,-0.30519 -0.365764,-0.89693 v -2.23652 h 0.701242 v 2.23652 q 0,0.33547 0.15842,0.4869 0.16075,0.15144 0.442644,0.15144 0.584757,0 0.598735,-0.60806 z"
               style="font-style:normal;font-variant:normal;font-weight:bold;font-stretch:normal;font-family:Roboto;-inkscape-font-specification:'Roboto Bold';letter-spacing:1.55692px;fill:#ffffff;stroke-width:0.119281"
               id="path3325" />
            <path
               d="m 86.319049,-220.02615 q 0,-0.17007 -0.116485,-0.28189 -0.116486,-0.11416 -0.566119,-0.2586 -0.447304,-0.14677 -0.773463,-0.37741 -0.342467,-0.23996 -0.342467,-0.68261 0,-0.42633 0.351786,-0.68726 0.351786,-0.26093 0.901597,-0.26093 0.563789,0 0.903926,0.29588 0.340137,0.29354 0.340137,0.75016 h -0.698912 q 0,-0.21433 -0.137453,-0.35178 -0.137452,-0.13746 -0.419347,-0.13746 -0.274905,0 -0.410028,0.11649 -0.132794,0.11415 -0.132794,0.27723 0,0.16774 0.172399,0.27957 0.172398,0.11182 0.500887,0.212 0.5568,0.17007 0.841024,0.42634 0.286554,0.25627 0.286554,0.67561 0,0.44498 -0.335478,0.69426 -0.335478,0.24694 -0.894607,0.24694 -0.337808,0 -0.652318,-0.11881 -0.314511,-0.11882 -0.517195,-0.36576 -0.202685,-0.24695 -0.202685,-0.63136 h 0.701242 q 0,0.30986 0.184047,0.43566 0.186376,0.1258 0.486909,0.1258 0.270246,0 0.39838,-0.10949 0.130463,-0.1095 0.130463,-0.27258 z"
               style="font-style:normal;font-variant:normal;font-weight:bold;font-stretch:normal;font-family:Roboto;-inkscape-font-specification:'Roboto Bold';letter-spacing:1.55692px;fill:#ffffff;stroke-width:0.119281"
               id="path3327" />
          </g>
          <g
             aria-label="- "
             transform="scale(1.0153485,0.98488352)"
             id="text860-7-7-2-1-0-4-7-9-6-5-36"
             style="font-style:normal;font-variant:normal;font-weight:normal;font-stretch:normal;font-size:4.63169px;line-height:1.23;font-family:Roboto;-inkscape-font-specification:Roboto;letter-spacing:1.51139px;word-spacing:0px;fill:#ffffff;fill-opacity:1;stroke:none;stroke-width:0.115792">
            <path
               d="m 64.624616,-220.68766 v 0.5292 h -1.271001 v -0.5292 z"
               style="font-style:normal;font-variant:normal;font-weight:bold;font-stretch:normal;line-height:1.23;font-family:Roboto;-inkscape-font-specification:'Roboto Bold';letter-spacing:1.51139px;fill:#ffffff;stroke-width:0.115792"
               id="path3330" />
          </g>
          <g
             aria-label="N "
             transform="scale(1.0153485,0.98488352)"
             id="text860-7-7-2-1-0-3-1-33-4-6-3"
             style="font-style:normal;font-variant:normal;font-weight:normal;font-stretch:normal;font-size:4.63169px;line-height:1.17;font-family:Roboto;-inkscape-font-specification:Roboto;letter-spacing:1.51077px;word-spacing:0px;fill:#ffffff;fill-opacity:1;stroke:none;stroke-width:0.115792">
            <path
               d="m 61.414951,-222.77169 v 3.51124 h -0.72347 l -1.408355,-2.3127 v 2.3127 h -0.725882 v -3.51124 h 0.725882 l 1.408355,2.3151 v -2.3151 z"
               style="font-style:normal;font-variant:normal;font-weight:bold;font-stretch:normal;font-size:4.93889px;line-height:1.17;font-family:Roboto;-inkscape-font-specification:'Roboto Bold';letter-spacing:1.51077px;fill:#ffffff;stroke-width:0.115792"
               id="path3333" />
          </g>
        </g>
      </g>
      <g
         id="g1251-6-5-6-9-6-6"
         transform="translate(0.05431016,39.343967)"
         style="fill:#ffffff" />
      <text
         transform="scale(1.0153485,0.98488352)"
         id="text860-7-7-2-1-0-7-6-3-7-1"
         y="-184.65668"
         x="66.36364"
         style="font-style:normal;font-variant:normal;font-weight:normal;font-stretch:normal;font-size:4.63169px;line-height:1.15;font-family:Roboto;-inkscape-font-specification:Roboto;letter-spacing:1.51077px;word-spacing:0px;fill:#ffffff;fill-opacity:1;stroke:none;stroke-width:0.115792"
         xml:space="preserve"><tspan
           id="tspan983-9-4-5-6-5"
           style="font-style:normal;font-variant:normal;font-weight:bold;font-stretch:normal;font-size:4.93889px;line-height:1.15;font-family:Roboto;-inkscape-font-specification:'Roboto Bold';letter-spacing:1.51077px;fill:#ffffff;stroke-width:0.115792"
           y="-184.65668"
           x="66.36364" /></text>
    </g>
  </g>
</svg>
