<?xml version="1.0" encoding="UTF-8" standalone="no"?>
<svg
   xmlns:dc="http://purl.org/dc/elements/1.1/"
   xmlns:cc="http://creativecommons.org/ns#"
   xmlns:rdf="http://www.w3.org/1999/02/22-rdf-syntax-ns#"
   xmlns:svg="http://www.w3.org/2000/svg"
   xmlns="http://www.w3.org/2000/svg"
   xmlns:sodipodi="http://sodipodi.sourceforge.net/DTD/sodipodi-0.dtd"
   xmlns:inkscape="http://www.inkscape.org/namespaces/inkscape"
   inkscape:version="1.0 (1.0+r73+1)"
   sodipodi:docname="tu_daad_logo.svg"
   width="280.45569"
   height="51.331516"
   viewBox="0 0 74.203902 13.581464"
   version="1.1"
   id="svg2938">
  <sodipodi:namedview
     inkscape:current-layer="svg2938"
     inkscape:window-maximized="1"
     inkscape:window-y="27"
     inkscape:window-x="70"
     inkscape:cy="22.915557"
     inkscape:cx="87.417291"
     inkscape:zoom="2.56"
     showgrid="false"
     id="namedview1312"
     inkscape:window-height="836"
     inkscape:window-width="1530"
     inkscape:pageshadow="2"
     inkscape:pageopacity="0"
     guidetolerance="10"
     gridtolerance="10"
     objecttolerance="10"
     borderopacity="1"
     bordercolor="#666666"
     pagecolor="#ffffff" />
  <defs
     id="defs2932">
    <clipPath
       clipPathUnits="userSpaceOnUse"
       id="clipPath12169">
      <rect
         style="vector-effect:none;fill:none;fill-opacity:1;stroke:none;stroke-width:0.108213;stroke-linecap:butt;stroke-linejoin:miter;stroke-miterlimit:4;stroke-dasharray:none;stroke-dashoffset:0;stroke-opacity:1"
         id="rect12171"
         width="95.25"
         height="63.500004"
         x="-201.08333"
         y="261.93756" />
    </clipPath>
    <clipPath
       clipPathUnits="userSpaceOnUse"
       id="clipPath12208">
      <rect
         y="-63.5"
         x="-349.24988"
         height="63.500004"
         width="95.25"
         id="rect12210"
         style="vector-effect:none;fill:none;fill-opacity:1;stroke:none;stroke-width:0.108213;stroke-linecap:butt;stroke-linejoin:miter;stroke-miterlimit:4;stroke-dasharray:none;stroke-dashoffset:0;stroke-opacity:1" />
    </clipPath>
    <clipPath
       id="clipPath12169-3"
       clipPathUnits="userSpaceOnUse">
      <rect
         y="261.93756"
         x="-201.08333"
         height="63.500004"
         width="95.25"
         id="rect12171-6"
         style="vector-effect:none;fill:none;fill-opacity:1;stroke:none;stroke-width:0.108213;stroke-linecap:butt;stroke-linejoin:miter;stroke-miterlimit:4;stroke-dasharray:none;stroke-dashoffset:0;stroke-opacity:1" />
    </clipPath>
    <clipPath
       id="clipPath12208-7"
       clipPathUnits="userSpaceOnUse">
      <rect
         style="vector-effect:none;fill:none;fill-opacity:1;stroke:none;stroke-width:0.108213;stroke-linecap:butt;stroke-linejoin:miter;stroke-miterlimit:4;stroke-dasharray:none;stroke-dashoffset:0;stroke-opacity:1"
         id="rect12210-5"
         width="95.25"
         height="63.500004"
         x="-349.24988"
         y="-63.5" />
    </clipPath>
    <clipPath
       clipPathUnits="userSpaceOnUse"
       id="clipPath12169-3-0">
      <rect
         style="vector-effect:none;fill:none;fill-opacity:1;stroke:none;stroke-width:0.108213;stroke-linecap:butt;stroke-linejoin:miter;stroke-miterlimit:4;stroke-dasharray:none;stroke-dashoffset:0;stroke-opacity:1"
         id="rect12171-6-3"
         width="95.25"
         height="63.500004"
         x="-201.08333"
         y="261.93756" />
    </clipPath>
    <clipPath
       clipPathUnits="userSpaceOnUse"
       id="clipPath12208-7-4">
      <rect
         y="-63.5"
         x="-349.24988"
         height="63.500004"
         width="95.25"
         id="rect12210-5-0"
         style="vector-effect:none;fill:none;fill-opacity:1;stroke:none;stroke-width:0.108213;stroke-linecap:butt;stroke-linejoin:miter;stroke-miterlimit:4;stroke-dasharray:none;stroke-dashoffset:0;stroke-opacity:1" />
    </clipPath>
    <clipPath
       clipPathUnits="userSpaceOnUse"
       id="clipPath12169-3-9">
      <rect
         style="vector-effect:none;fill:none;fill-opacity:1;stroke:none;stroke-width:0.108213;stroke-linecap:butt;stroke-linejoin:miter;stroke-miterlimit:4;stroke-dasharray:none;stroke-dashoffset:0;stroke-opacity:1"
         id="rect12171-6-4"
         width="95.25"
         height="63.500004"
         x="-201.08333"
         y="261.93756" />
    </clipPath>
    <clipPath
       clipPathUnits="userSpaceOnUse"
       id="clipPath12208-7-5">
      <rect
         y="-63.5"
         x="-349.24988"
         height="63.500004"
         width="95.25"
         id="rect12210-5-1"
         style="vector-effect:none;fill:none;fill-opacity:1;stroke:none;stroke-width:0.108213;stroke-linecap:butt;stroke-linejoin:miter;stroke-miterlimit:4;stroke-dasharray:none;stroke-dashoffset:0;stroke-opacity:1" />
    </clipPath>
    <clipPath
       id="clipPath12169-3-9-3"
       clipPathUnits="userSpaceOnUse">
      <rect
         y="261.93756"
         x="-201.08333"
         height="63.500004"
         width="95.25"
         id="rect12171-6-4-8"
         style="vector-effect:none;fill:none;fill-opacity:1;stroke:none;stroke-width:0.108213;stroke-linecap:butt;stroke-linejoin:miter;stroke-miterlimit:4;stroke-dasharray:none;stroke-dashoffset:0;stroke-opacity:1" />
    </clipPath>
    <clipPath
       id="clipPath12208-7-5-9"
       clipPathUnits="userSpaceOnUse">
      <rect
         style="vector-effect:none;fill:none;fill-opacity:1;stroke:none;stroke-width:0.108213;stroke-linecap:butt;stroke-linejoin:miter;stroke-miterlimit:4;stroke-dasharray:none;stroke-dashoffset:0;stroke-opacity:1"
         id="rect12210-5-1-5"
         width="95.25"
         height="63.500004"
         x="-349.24988"
         y="-63.5" />
    </clipPath>
    <clipPath
       clipPathUnits="userSpaceOnUse"
       id="clipPath12169-3-9-3-1">
      <rect
         style="vector-effect:none;fill:none;fill-opacity:1;stroke:none;stroke-width:0.108213;stroke-linecap:butt;stroke-linejoin:miter;stroke-miterlimit:4;stroke-dasharray:none;stroke-dashoffset:0;stroke-opacity:1"
         id="rect12171-6-4-8-2"
         width="95.25"
         height="63.500004"
         x="-201.08333"
         y="261.93756" />
    </clipPath>
    <clipPath
       clipPathUnits="userSpaceOnUse"
       id="clipPath12208-7-5-9-9">
      <rect
         y="-63.5"
         x="-349.24988"
         height="63.500004"
         width="95.25"
         id="rect12210-5-1-5-7"
         style="vector-effect:none;fill:none;fill-opacity:1;stroke:none;stroke-width:0.108213;stroke-linecap:butt;stroke-linejoin:miter;stroke-miterlimit:4;stroke-dasharray:none;stroke-dashoffset:0;stroke-opacity:1" />
    </clipPath>
    <clipPath
       id="clipPath12169-3-9-3-5"
       clipPathUnits="userSpaceOnUse">
      <rect
         y="261.93756"
         x="-201.08333"
         height="63.500004"
         width="95.25"
         id="rect12171-6-4-8-7"
         style="vector-effect:none;fill:none;fill-opacity:1;stroke:none;stroke-width:0.108213;stroke-linecap:butt;stroke-linejoin:miter;stroke-miterlimit:4;stroke-dasharray:none;stroke-dashoffset:0;stroke-opacity:1" />
    </clipPath>
    <clipPath
       id="clipPath12208-7-5-9-4"
       clipPathUnits="userSpaceOnUse">
      <rect
         style="vector-effect:none;fill:none;fill-opacity:1;stroke:none;stroke-width:0.108213;stroke-linecap:butt;stroke-linejoin:miter;stroke-miterlimit:4;stroke-dasharray:none;stroke-dashoffset:0;stroke-opacity:1"
         id="rect12210-5-1-5-2"
         width="95.25"
         height="63.500004"
         x="-349.24988"
         y="-63.5" />
    </clipPath>
    <clipPath
       id="clipPath12169-3-9-3-0"
       clipPathUnits="userSpaceOnUse">
      <rect
         y="261.93756"
         x="-201.08333"
         height="63.500004"
         width="95.25"
         id="rect12171-6-4-8-0"
         style="vector-effect:none;fill:none;fill-opacity:1;stroke:none;stroke-width:0.108213;stroke-linecap:butt;stroke-linejoin:miter;stroke-miterlimit:4;stroke-dasharray:none;stroke-dashoffset:0;stroke-opacity:1" />
    </clipPath>
    <clipPath
       id="clipPath12208-7-5-9-3"
       clipPathUnits="userSpaceOnUse">
      <rect
         style="vector-effect:none;fill:none;fill-opacity:1;stroke:none;stroke-width:0.108213;stroke-linecap:butt;stroke-linejoin:miter;stroke-miterlimit:4;stroke-dasharray:none;stroke-dashoffset:0;stroke-opacity:1"
         id="rect12210-5-1-5-3"
         width="95.25"
         height="63.500004"
         x="-349.24988"
         y="-63.5" />
    </clipPath>
    <clipPath
       clipPathUnits="userSpaceOnUse"
       id="clipPath14213-7-0">
      <rect
         style="fill:#002547;fill-opacity:0.529114;stroke-width:1.51288"
         id="rect14215-57-3"
         width="296.33334"
         height="156.10417"
         x="635"
         y="66.145836" />
    </clipPath>
    <clipPath
       clipPathUnits="userSpaceOnUse"
       id="clipPath14213-7-0-9">
      <rect
         style="fill:#002547;fill-opacity:0.529114;stroke-width:1.51288"
         id="rect14215-57-3-3"
         width="296.33334"
         height="156.10417"
         x="635"
         y="66.145836" />
    </clipPath>
    <clipPath
       id="clipPath12169-7"
       clipPathUnits="userSpaceOnUse">
      <rect
         y="261.93756"
         x="-201.08333"
         height="63.500004"
         width="95.25"
         id="rect12171-4"
         style="vector-effect:none;fill:none;fill-opacity:1;stroke:none;stroke-width:0.108213;stroke-linecap:butt;stroke-linejoin:miter;stroke-miterlimit:4;stroke-dasharray:none;stroke-dashoffset:0;stroke-opacity:1" />
    </clipPath>
    <clipPath
       id="clipPath12208-3"
       clipPathUnits="userSpaceOnUse">
      <rect
         style="vector-effect:none;fill:none;fill-opacity:1;stroke:none;stroke-width:0.108213;stroke-linecap:butt;stroke-linejoin:miter;stroke-miterlimit:4;stroke-dasharray:none;stroke-dashoffset:0;stroke-opacity:1"
         id="rect12210-0"
         width="95.25"
         height="63.500004"
         x="-349.24988"
         y="-63.5" />
    </clipPath>
    <clipPath
       clipPathUnits="userSpaceOnUse"
       id="clipPath12169-7-8">
      <rect
         style="vector-effect:none;fill:none;fill-opacity:1;stroke:none;stroke-width:0.108213;stroke-linecap:butt;stroke-linejoin:miter;stroke-miterlimit:4;stroke-dasharray:none;stroke-dashoffset:0;stroke-opacity:1"
         id="rect12171-4-8"
         width="95.25"
         height="63.500004"
         x="-201.08333"
         y="261.93756" />
    </clipPath>
    <clipPath
       clipPathUnits="userSpaceOnUse"
       id="clipPath12208-3-6">
      <rect
         y="-63.5"
         x="-349.24988"
         height="63.500004"
         width="95.25"
         id="rect12210-0-1"
         style="vector-effect:none;fill:none;fill-opacity:1;stroke:none;stroke-width:0.108213;stroke-linecap:butt;stroke-linejoin:miter;stroke-miterlimit:4;stroke-dasharray:none;stroke-dashoffset:0;stroke-opacity:1" />
    </clipPath>
    <clipPath
       clipPathUnits="userSpaceOnUse"
       id="clipPath14213">
      <rect
         style="fill:#002547;fill-opacity:0.529114;stroke-width:1.51288"
         id="rect14215"
         width="296.33334"
         height="156.10417"
         x="635"
         y="66.145836" />
    </clipPath>
  </defs>
  <metadata
     id="metadata2935">
    <rdf:RDF>
      <cc:Work
         rdf:about="">
        <dc:format>image/svg+xml</dc:format>
        <dc:type
           rdf:resource="http://purl.org/dc/dcmitype/StillImage" />
        <dc:title></dc:title>
      </cc:Work>
    </rdf:RDF>
  </metadata>
  <g
     transform="matrix(0.04676903,0,0,0.04676903,26.86441,25.40535)"
     id="g2522-1-6"
     style="fill:#666666;fill-opacity:1">
    <path
       d="m -574.40607,-258.15007 c 40.21515,-0.19439 80.44402,0.41869 120.64927,-0.36561 33.02979,-0.89157 68.15786,-13.6636 86.97126,-42.25602 21.72978,-30.69228 27.77735,-69.41698 25.81874,-106.26237 -0.8403,-36.63567 -10.85845,-75.26448 -37.88135,-101.50848 -17.75647,-18.81431 -43.66553,-27.00979 -68.9645,-28.11346 -35.02923,-1.54226 -70.12196,-0.49239 -105.18056,-0.80124 -7.13762,0 -14.27524,0 -21.41286,0 0,93.10239 0,186.20479 0,279.30718 z m 81.9189,-232.10724 c 23.96512,0.6964 51.41027,-2.21343 70.83066,14.78138 20.07709,18.55973 22.28083,47.98515 22.76862,73.70787 -0.11902,26.71752 -0.80044,56.03579 -17.05822,78.54194 -15.00127,17.46723 -39.97589,18.20608 -61.22246,17.87587 -13.55832,-0.002 -27.11665,-0.005 -40.67497,-0.007 0,-61.63331 0,-123.26662 0,-184.89993 8.452,-2.5e-4 16.90499,4.9e-4 25.35637,-3.7e-4 z"
       style="fill:#666666;fill-opacity:1"
       id="_32888512-5-9" />
    <path
       d="m -168.7114,-537.45725 h -59.68462 l -108.44744,279.30718 h 59.68461 l 23.40645,-63.59183 h 111.95657 l 24.18422,63.59183 h 60.856775 z m -67.87503,168.51541 37.83736,-103.37175 38.6188,103.37175 z"
       id="_62323816-9-4"
       style="fill:#666666;fill-opacity:1" />
    <path
       d="M 112.93274,-537.45725 H 53.244439 L -55.203005,-258.15007 H 4.4852945 L 27.891748,-321.7419 H 139.84463 l 24.18421,63.59183 h 60.85678 z m -67.878717,168.51541 37.841048,-103.37175 38.618809,103.37175 z"
       id="_71917560-8-2"
       style="fill:#666666;fill-opacity:1" />
    <path
       d="m 254.9196,-258.15007 c 40.21532,-0.19439 80.44437,0.41868 120.64979,-0.36561 33.02966,-0.89127 68.15738,-13.66399 86.97074,-42.25602 21.72978,-30.69228 27.77735,-69.41698 25.81874,-106.26237 -0.8403,-36.63567 -10.85845,-75.26448 -37.88135,-101.50848 -17.75629,-18.81383 -43.66483,-27.01005 -68.96352,-28.11346 -35.02956,-1.54225 -70.12262,-0.4924 -105.18154,-0.80124 -7.13762,0 -14.27524,0 -21.41286,0 0,93.10239 0,186.20479 0,279.30718 z m 81.91891,-232.10724 c 23.96513,0.6967 51.41112,-2.2138 70.83127,14.78138 20.07612,18.56051 22.2804,47.98509 22.76801,73.70787 -0.11967,26.7174 -0.79902,56.03755 -17.06021,78.54194 -14.99923,17.46983 -39.97482,18.20486 -61.22047,17.87587 -13.55833,-0.002 -27.11665,-0.005 -40.67498,-0.007 0,-61.63331 0,-123.26662 0,-184.89993 8.452,-2.5e-4 16.90499,4.9e-4 25.35638,-3.7e-4 z"
       style="fill:#666666;fill-opacity:1"
       id="_71899344-4-2" />
  </g>
  <g
     transform="translate(-9.5693725,15.73264)"
     id="g6605">
    <g
       id="g6600">
      <path
         d="m 78.141585,-1.87688 c -0.397338,-0.03204 -0.09179,-0.6387691 -0.1333,-0.950601 0.341093,-3.8595312 0.678492,-7.719846 1.032,-11.578 1.435164,-0.0038 2.857166,0.01239 4.2926,0.009 -0.124053,2.075142 -0.361525,4.193502 -0.53,6.287 -0.1358,1.0745192 -0.08872,2.1837647 -0.39,3.230701 -0.339085,1.1306078 -1.133794,2.1818887 -2.27339,2.584851 -0.634249,0.2374146 -1.309237,0.3952636 -1.99051,0.38 z m -0.79444,-0.06455 c -1.107496,-0.1643928 -2.249392,-0.5485423 -3.0109,-1.4091 -0.660365,-0.7138401 -0.874977,-1.7516393 -0.7068,-2.6933 0.146666,-1.6993961 0.305304,-3.4007826 0.445,-5.07767 0.0071,-0.305558 -0.547289,-0.06984 -0.781867,-0.146875 -2.1441,-0.01698 -4.284652,0.0098 -6.432705,-0.04662 -0.978264,-0.0956 -1.778798,-0.991151 -1.79406,-1.96291 -0.08696,-0.824188 0.40272,-1.691662 1.19745,-1.99987 0.80211,-0.331212 1.698508,-0.106163 2.538913,-0.166096 2.629692,0.01996 5.26606,-0.01274 7.899446,0.0301 0.952973,0.09205 1.754055,0.929687 1.79771,1.88668 -0.038,1.359585 -0.232622,2.711879 -0.33,4.06908 -0.23116,2.5253537 -0.43142,5.053843 -0.683,7.5769 -0.0925,0.066016 -0.106088,-0.015369 -0.139187,-0.06031 z M 65.092686,-13.62692 c -0.01278,-0.01794 -0.01278,0.01794 0,0 z m 6.82236,10.65491 c -1.121493,-0.014854 -2.24532,0.00788 -3.36556,-0.015 0.229491,-2.6248162 0.475978,-5.2494808 0.706,-7.8744 1.295762,0.0062 2.593965,0.01111 3.89489,0.009 -0.224547,2.6246903 -0.474026,5.248218 -0.712493,7.8717828 -0.167665,0.032627 -0.355081,8.705e-4 -0.522837,0.00862 z"
         style="fill:#666666;fill-opacity:1;stroke-width:0.00536771"
         id="path1455-0-0-1-9-2-7-9-3" />
    </g>
    <path
       id="path1455-0-0-1-9-2-6"
       style="fill:#ffffff;fill-opacity:1;stroke-width:0.00536771"
       d="m 81.333623,-6.75293 c 0.310832,0.010076 0.692894,-0.00742 0.911133,-0.267924 0.238492,-0.2241443 0.276286,-0.6174384 0.159647,-0.918067 -0.176723,-0.3252744 -0.587249,-0.4393201 -0.93809,-0.409725 -0.368234,0.026933 -0.781275,0.2373307 -0.868789,0.621325 -0.0852,0.1276373 0.08077,0.3736825 -0.0128,0.428255 -0.220481,0.055327 -0.626262,-0.1117169 -0.719735,0.098325 0.03776,0.1270444 -0.142706,0.466998 0.04505,0.461502 0.474297,-0.0014 0.948702,0.00384 1.422908,-0.005 z m 0.10736,-0.5475 c -0.179708,-0.00974 -0.304702,-0.2324143 -0.18313,-0.3782 0.12523,-0.1832977 0.479821,-0.187119 0.545545,0.048763 0.04287,0.2048761 -0.186047,0.3443214 -0.362415,0.329437 z m 0.214712,-1.16478 c 0.343716,-0.033443 0.710006,-0.194918 0.88,-0.514071 0.162143,-0.2961455 0.107533,-0.695768 -0.09943,-0.9539052 -0.202475,0.01271 -0.489113,-0.0097 -0.641933,0.06943 0.185411,0.1298684 0.315176,0.3924335 0.208537,0.6115004 -0.104418,-0.058136 -0.17736,-0.2292373 -0.27227,-0.3263 -0.118405,-0.1382716 -0.204817,-0.3120733 -0.34386,-0.4275002 -0.373219,0.05548 -0.690824,0.4007675 -0.671739,0.784292 -0.0091,0.3281848 0.239688,0.6205487 0.5476,0.710549 0.125012,0.039698 0.279494,0.035112 0.393099,0.04601 z m -0.171781,-0.5260397 c -0.165263,-0.00742 -0.33008,-0.2069509 -0.184,-0.3484 0.109033,-0.040179 0.190026,0.2202633 0.28197,0.2949 0.102145,0.069932 -0.05958,0.073268 -0.09797,0.0535 z m -0.588201,-1.1178293 c 0.577449,0.0118 1.155717,0.0089 1.733294,0.0024 0.06719,-0.161074 0.04833,-0.372724 0.06409,-0.553814 -0.266483,-0.0012 -0.532849,0.0171 -0.789586,0 -0.160183,0.01981 -0.381052,-0.07335 -0.351869,-0.2646 -0.05465,-0.1932 -0.454507,-0.06287 -0.646643,-0.08453 -0.115928,0.117302 0.178633,0.357268 -0.0054,0.347025 -0.05676,0.160289 -0.04906,0.371294 -0.06159,0.5525 0.02092,-0.0094 0.04217,0.02463 0.05769,0.001 z m 0.416441,-1.03998 c 0.165492,-1.05e-4 0.328088,4.67e-4 0.492962,0 0.309539,0.0092 0.61942,0.0034 0.929109,0.005 0.01902,-0.15436 0.162843,-0.530101 -0.043,-0.547014 -0.582201,-0.0074 -1.16214,-0.0097 -1.747559,-0.01569 -0.204051,-0.0063 -0.427468,-0.005 -0.639497,-0.005 -0.02977,0.148507 -0.138039,0.479464 -0.0154,0.556107 0.339588,0.0057 0.691365,-0.0015 1.023384,0.0066 z m 1.320448,-0.75149 c 0.319179,0.09675 0.175891,-0.339413 0.243262,-0.51325 -0.195659,-0.08834 -0.478065,-0.01279 -0.704822,-0.03886 -0.365237,0.0083 -0.73695,-0.0182 -1.098058,0.01521 0.01695,0.15132 -0.128678,0.447685 0.0084,0.531697 0.516808,9.68e-4 1.037798,-0.0031 1.551249,0.0052 z m -1.768268,-0.0131 c 0.01064,-0.216527 0.194875,-0.650257 -0.187586,-0.540287 -0.09832,0.01102 -0.240291,-0.02155 -0.312106,0.016 0.0097,0.192264 -0.204042,0.600399 0.141559,0.529714 0.1183,-1.72e-4 0.245194,0.007 0.358133,-0.0054 z m 2.018249,-0.75145 c 0.02289,-0.22079 0.186491,-0.645579 -0.200157,-0.528962 -0.307099,-0.01219 -0.613027,0.02664 -0.911095,-0.04514 -0.153311,-0.05201 -0.08216,-0.268231 0.06412,-0.2718 0.374124,-0.04968 0.755488,0.0012 1.130379,-0.018 -0.04875,-0.152455 0.213761,-0.592106 -0.081,-0.5451 -0.155265,-1.2e-5 -0.332201,0.005 -0.482208,0 -0.310733,0.01239 -0.649235,-0.05281 -0.95532,0.05 -0.290704,0.114856 -0.349475,0.505899 -0.184179,0.74637 0.06423,0.106052 -0.237199,-0.03089 -0.1571,0.1499 -0.01556,0.214376 -0.133069,0.566973 0.21511,0.461976 0.52008,0.006 1.041849,0.02179 1.56145,7.54e-4 z" />
  </g>
</svg>
